<?xml version="1.0" encoding="UTF-8" standalone="no"?>
<!-- Created with Inkscape (http://www.inkscape.org/) -->

<svg
   width="2in"
   height="2in"
   viewBox="0 0 50.8 50.8"
   version="1.1"
   id="svg5"
   inkscape:version="1.2.1 (9c6d41e410, 2022-07-14)"
   sodipodi:docname="btn-wooden-round-empires.svg"
   inkscape:export-filename="..\..\..\ui\buttons\circbtn-empires.png"
   inkscape:export-xdpi="120"
   inkscape:export-ydpi="120"
   xmlns:inkscape="http://www.inkscape.org/namespaces/inkscape"
   xmlns:sodipodi="http://sodipodi.sourceforge.net/DTD/sodipodi-0.dtd"
   xmlns="http://www.w3.org/2000/svg"
   xmlns:svg="http://www.w3.org/2000/svg">
  <sodipodi:namedview
     id="namedview7"
     pagecolor="#ffffff"
     bordercolor="#666666"
     borderopacity="1.0"
     inkscape:pageshadow="2"
     inkscape:pageopacity="0.0"
     inkscape:pagecheckerboard="0"
     inkscape:document-units="in"
     showgrid="false"
     inkscape:zoom="2.5706278"
     inkscape:cx="75.662451"
     inkscape:cy="139.84911"
     inkscape:window-width="1920"
     inkscape:window-height="1051"
     inkscape:window-x="-9"
     inkscape:window-y="-9"
     inkscape:window-maximized="1"
     inkscape:current-layer="layer2"
     showguides="true"
     inkscape:guide-bbox="true"
     inkscape:showpageshadow="0"
     inkscape:deskcolor="#d1d1d1">
    <sodipodi:guide
       position="34.060745,23.434957"
       orientation="1,0"
       id="guide47416"
       inkscape:locked="false" />
    <sodipodi:guide
       position="34.060745,33.987966"
       orientation="0,-1"
       id="guide47418"
       inkscape:locked="false" />
    <sodipodi:guide
       position="29.330086,16.666476"
       orientation="0,-1"
       id="guide47420"
       inkscape:locked="false" />
    <sodipodi:guide
       position="16.739255,21.324355"
       orientation="1,0"
       id="guide47422"
       inkscape:locked="false" />
  </sodipodi:namedview>
  <defs
     id="defs2">
    <rect
       x="63.266476"
       y="63.541546"
       width="65.467049"
       height="65.467049"
       id="rect52404" />
    <rect
       x="49.787966"
       y="59.140401"
       width="86.372493"
       height="82.52149"
       id="rect8610" />
    <filter
       style="color-interpolation-filters:sRGB;"
       inkscape:label="Blur"
       id="filter9820"
       x="-0.71815918"
       y="-0.66894104"
       width="2.4363184"
       height="2.3378821">
      <feGaussianBlur
         stdDeviation="5.17077 4.84823"
         result="blur"
         id="feGaussianBlur9818" />
    </filter>
  </defs>
  <g
     inkscape:groupmode="layer"
     id="layer2"
     inkscape:label="bg-background"
     style="display:inline">
    <path
       id="path1045-6"
       style="fill:#784625;fill-opacity:1;stroke:none;stroke-width:1;stroke-linecap:round;stroke-linejoin:round;stroke-miterlimit:4;stroke-dasharray:none;stroke-opacity:1;paint-order:markers fill stroke"
       d="M 45.048757,26.605589 A 19.621823,20.373497 0 0 1 25.426934,46.979084 19.621823,20.373497 0 0 1 5.8051101,26.605589 19.621823,20.373497 0 0 1 25.426934,6.2320906 19.621823,20.373497 0 0 1 45.048757,26.605589 Z" />
    <path
       id="bg-btn-main"
       style="fill:#c18155;fill-opacity:1;stroke:#f1c76c;stroke-width:1;stroke-linecap:round;stroke-linejoin:round;stroke-miterlimit:4;stroke-dasharray:none;stroke-opacity:1;paint-order:markers fill stroke"
       d="M 44.06791,25.400001 A 18.66791,18.66791 0 0 1 25.400001,44.06791 18.66791,18.66791 0 0 1 6.7320904,25.400001 18.66791,18.66791 0 0 1 25.400001,6.7320904 18.66791,18.66791 0 0 1 44.06791,25.400001 Z" />
    <g
       id="g5179"
       transform="matrix(0.32298983,0,0,0.32298983,12.480407,12.138576)">
      <path
         style="fill:#d4aa00;fill-opacity:1;stroke-width:0.0895188"
         d="M 21.838787,70.874495 C 20.851924,70.545151 20.485181,69.910101 20.264898,68.149152 19.824726,64.630431 19.157252,62.475893 17.83731,60.313155 16.710327,58.46658 15.180407,56.647788 10.857112,52.014985 8.1487281,49.112707 6.9887591,47.484392 6.3645171,45.708471 c -0.42504,-1.209208 -0.530792,-1.915417 -0.479793,-3.204052 0.05395,-1.363246 0.30822,-2.404305 0.891732,-3.651056 0.32025,-0.684258 0.548184,-1.013947 1.17085,-1.69355 1.16518,-1.271724 2.4883199,-1.982893 4.3529099,-2.339629 0.981789,-0.187837 2.712418,-0.185812 3.721482,0.0044 0.436298,0.08222 0.821599,0.113869 0.856226,0.07032 0.03463,-0.04354 0.169635,-0.41673 0.30002,-0.829295 0.854437,-2.703622 2.736141,-4.857828 5.12974,-5.872613 4.310481,-1.827461 9.641751,-0.74589 13.432931,2.725179 l 0.62465,0.571907 0.376221,-0.821949 c 0.682138,-1.490298 1.203277,-3.379005 1.459036,-5.287822 0.197537,-1.474292 0.21636,-1.394438 -0.328689,-1.394438 -0.654189,0 -2.398831,0.256094 -3.551845,0.521371 -0.539033,0.124016 -1.009629,0.193044 -1.045768,0.153396 -0.03614,-0.03965 -0.143155,-0.404316 -0.237813,-0.81037 -0.286282,-1.228059 -0.203146,-3.195352 0.173342,-4.101902 l 0.09697,-0.233482 0.629541,0.164554 c 0.672785,0.175858 2.750728,0.507303 3.788801,0.604337 l 0.630247,0.05892 -0.06064,-0.827271 C 38.210198,18.36324 38.0208,16.906585 37.81103,15.795972 37.643596,14.9095 37.641805,14.84812 37.78013,14.737156 c 0.481057,-0.385919 2.613065,-0.537285 3.710514,-0.263433 0.923187,0.230366 0.900005,0.177083 0.653871,1.502974 -0.214737,1.156759 -0.477035,3.360936 -0.477221,4.010244 l -8.6e-5,0.361136 0.61962,-0.06173 c 1.150395,-0.114611 1.982037,-0.242543 3.168445,-0.487399 0.722495,-0.149113 1.21205,-0.210181 1.260328,-0.157215 0.04342,0.04763 0.160851,0.44198 0.260965,0.876324 0.15381,0.667304 0.174979,0.96458 0.136567,1.9178 -0.04082,1.013062 -0.188938,1.849028 -0.38673,2.182718 -0.05449,0.09193 -0.235009,0.07732 -0.842903,-0.06824 -1.081257,-0.258907 -2.341997,-0.457883 -3.369128,-0.531733 l -0.874262,-0.06286 0.05867,0.694865 c 0.177979,2.108153 1.076825,5.393533 1.813112,6.627121 l 0.126887,0.212588 0.613539,-0.579343 c 2.11578,-1.997847 4.959065,-3.255132 8.048761,-3.559119 1.87857,-0.184826 3.99264,0.181843 5.73265,0.994284 1.17582,0.549014 2.64359,1.83333 3.4792,3.044341 0.49299,0.714466 1.20408,2.229336 1.40243,2.987642 0.0764,0.292262 0.15002,0.545136 0.1635,0.561943 0.0135,0.01681 0.44144,-0.04118 0.95101,-0.128865 1.33642,-0.229959 3.26037,-0.151811 4.43057,0.179962 1.00222,0.284149 2.35527,0.9937 3.05295,1.600993 1.01796,0.886067 1.80936,2.192299 2.23848,3.694677 0.92213,3.228399 0.16469,6.065406 -2.49466,9.343792 -0.41832,0.515702 -1.96436,2.224565 -3.43563,3.797473 -6.19944,6.627699 -7.29812,8.613351 -8.11692,14.669862 -0.19697,1.456878 -0.38348,1.992672 -0.82118,2.358944 -0.63816,0.534021 0.43269,0.505941 -18.960509,0.497195 -9.828461,-0.0045 -17.966326,-0.04023 -18.084144,-0.07955 z m 3.079565,-9.851922 c 0.494813,-0.147741 1.321685,-0.358121 1.837493,-0.467515 0.51581,-0.109392 0.985686,-0.216214 1.044171,-0.23738 0.230009,-0.08324 -0.92044,-3.087313 -1.944742,-5.078139 -0.875535,-1.701682 -1.887017,-3.330345 -4.007178,-6.45226 -3.05642,-4.500545 -4.167571,-6.49826 -4.759195,-8.556458 -0.241707,-0.840872 -0.257015,-0.867087 -0.505647,-0.86594 -0.81187,0.0037 -2.051046,0.563646 -2.642589,1.194012 -1.050474,1.119415 -1.492959,2.882103 -1.118952,4.457467 0.406945,1.714101 1.157327,2.994715 4.115747,7.024 2.769019,3.771327 3.908118,5.603061 5.03797,8.101334 l 0.727419,1.608433 0.657922,-0.229468 c 0.361857,-0.126207 1.062769,-0.350346 1.557581,-0.498086 z m 32.763517,-0.153605 c 1.06535,-2.620518 2.26589,-4.591953 5.43962,-8.932549 2.87164,-3.927445 3.7131,-5.371418 4.05357,-6.956127 0.54265,-2.525678 -0.73853,-4.899909 -2.95313,-5.472623 -0.30116,-0.07789 -0.66499,-0.14223 -0.8085,-0.142992 -0.24896,-0.0013 -0.27006,0.02983 -0.45954,0.67841 -0.68615,2.348731 -1.54919,3.923169 -4.66436,8.509176 -2.88314,4.244441 -3.8829,5.934119 -4.96537,8.391969 -0.72809,1.653177 -1.28142,3.316909 -1.12173,3.372738 0.0578,0.02021 0.60395,0.148396 1.21363,0.284857 1.00267,0.224419 3.70572,1.03034 3.799,1.132681 0.0656,0.07197 0.14714,-0.07923 0.46681,-0.86554 z M 36.402027,59.132061 37.760399,59.012662 37.706389,57.8378 c -0.100042,-2.175991 -0.538954,-4.68079 -1.479217,-8.441651 -1.13964,-4.558332 -1.422931,-5.985588 -1.578301,-7.951662 -0.140977,-1.783964 0.02291,-3.811596 0.440663,-5.452146 l 0.177907,-0.698646 -0.197356,-0.167699 c -0.236148,-0.200665 -1.32934,-0.677962 -2.013667,-0.879186 -0.709657,-0.208674 -2.269882,-0.279136 -3.071921,-0.138733 -2.287088,0.400374 -3.922778,1.954955 -4.690813,4.458212 -0.181843,0.592679 -0.238827,0.98628 -0.271502,1.8753 -0.08642,2.351315 0.523311,4.208303 2.847818,8.673264 2.322196,4.460526 3.309129,6.975133 3.84634,9.800098 l 0.142962,0.751774 1.592178,-0.207633 c 0.875698,-0.114198 2.203445,-0.261362 2.950552,-0.327031 z m 11.805726,0.132855 c 0.10272,-0.68151 0.629302,-2.724097 0.938944,-3.642117 0.440248,-1.305232 1.555772,-3.767381 2.778632,-6.132886 2.49259,-4.821695 3.03163,-6.372185 3.03163,-8.720146 0,-1.458767 -0.14777,-2.131909 -0.7513,-3.422424 -0.41472,-0.886787 -1.38013,-2.009753 -2.11177,-2.456413 -1.615021,-0.985951 -3.771079,-1.149308 -5.76888,-0.437089 -0.723451,0.257913 -1.449251,0.625593 -1.534842,0.777532 -0.02822,0.05009 0.04303,0.504482 0.158323,1.009758 0.400009,1.753013 0.525399,3.356022 0.395121,5.051283 -0.162911,2.119896 -0.439927,3.577036 -1.406905,7.400497 -1.125634,4.450788 -1.603974,7.16063 -1.687873,9.561956 l -0.02614,0.748045 1.281972,0.119447 c 0.705084,0.06569 1.878089,0.198573 2.606677,0.295283 0.728587,0.09671 1.486413,0.181026 1.684057,0.187366 0.35134,0.01127 0.360535,0.0037 0.412349,-0.340092 z"
         id="path1523-5" />
      <path
         style="fill:#ffd42a;fill-opacity:1;stroke-width:0.0895188"
         d="M 21.838788,67.699493 C 20.851925,67.370149 20.485182,66.735099 20.264899,64.97415 19.824727,61.455429 19.157253,59.300891 17.837311,57.138153 16.710328,55.291578 15.180408,53.472786 10.857113,48.839983 8.1487287,45.937705 6.9887603,44.30939 6.3645184,42.533469 5.9394777,41.324261 5.8337257,40.618052 5.8847249,39.329417 c 0.053953,-1.363246 0.3082204,-2.404305 0.8917324,-3.651056 0.3202501,-0.684258 0.5481837,-1.013947 1.1708501,-1.69355 1.1651798,-1.271724 2.4883196,-1.982893 4.3529096,-2.339629 0.981789,-0.187837 2.712418,-0.185812 3.721482,0.0044 0.436298,0.08222 0.821599,0.113869 0.856226,0.07032 0.03463,-0.04354 0.169635,-0.41673 0.30002,-0.829295 0.854437,-2.703622 2.736141,-4.857828 5.12974,-5.872613 4.310481,-1.827461 9.641751,-0.74589 13.432931,2.725179 l 0.62465,0.571907 0.376221,-0.821949 c 0.682138,-1.490298 1.203277,-3.379005 1.459036,-5.287822 0.197537,-1.474292 0.21636,-1.394438 -0.328689,-1.394438 -0.654189,0 -2.398831,0.256094 -3.551845,0.521371 -0.539033,0.124016 -1.009629,0.193044 -1.045768,0.153396 -0.03614,-0.03965 -0.143155,-0.404316 -0.237813,-0.81037 -0.286282,-1.228059 -0.203146,-3.195352 0.173342,-4.101902 l 0.09697,-0.233482 0.629541,0.164554 c 0.672785,0.175858 2.750728,0.507303 3.788801,0.604337 l 0.630247,0.05892 -0.06064,-0.827271 c -0.08447,-1.152186 -0.273868,-2.608841 -0.483638,-3.719454 -0.167434,-0.886472 -0.169225,-0.947852 -0.0309,-1.058816 0.481057,-0.385919 2.613065,-0.537285 3.710514,-0.263433 0.923187,0.230366 0.900005,0.177083 0.653871,1.502974 -0.214737,1.156759 -0.477035,3.360936 -0.477221,4.010244 l -8.6e-5,0.361136 0.61962,-0.06173 c 1.150395,-0.114611 1.982037,-0.242543 3.168445,-0.487399 0.722495,-0.149113 1.21205,-0.210181 1.260328,-0.157215 0.04342,0.04763 0.160851,0.44198 0.260965,0.876324 0.15381,0.667304 0.174979,0.96458 0.136567,1.9178 -0.04082,1.013062 -0.188938,1.849028 -0.38673,2.182718 -0.05449,0.09193 -0.235009,0.07732 -0.842903,-0.06824 C 44.802244,21.116426 43.541504,20.91745 42.514373,20.8436 l -0.874262,-0.06286 0.05867,0.694865 c 0.177979,2.108153 1.076825,5.393533 1.813112,6.627121 l 0.126887,0.212588 0.613539,-0.579343 c 2.11578,-1.997847 4.959065,-3.255132 8.04876,-3.559119 1.878571,-0.184826 3.992644,0.181843 5.73265,0.994284 1.175825,0.549014 2.643596,1.83333 3.479202,3.044341 0.492988,0.714466 1.20408,2.229336 1.402426,2.987642 0.07645,0.292262 0.150021,0.545136 0.163503,0.561943 0.01348,0.01681 0.441439,-0.04118 0.951015,-0.128865 1.336417,-0.229959 3.260363,-0.151811 4.430561,0.179962 1.00222,0.284149 2.355273,0.9937 3.052959,1.600993 1.017951,0.886067 1.809351,2.192299 2.238475,3.694677 0.922127,3.228399 0.164686,6.065406 -2.49466,9.343792 -0.418324,0.515702 -1.964359,2.224565 -3.435631,3.797473 -6.199442,6.627699 -7.298115,8.613351 -8.116922,14.669862 -0.196962,1.456878 -0.383478,1.992672 -0.821176,2.358944 -0.638162,0.534021 0.432689,0.505941 -18.96051,0.497195 -9.828461,-0.0045 -17.966326,-0.04023 -18.084144,-0.07955 z m 3.079565,-9.851922 c 0.494813,-0.147741 1.321685,-0.358121 1.837493,-0.467515 0.51581,-0.109392 0.985686,-0.216214 1.044171,-0.23738 0.230009,-0.08324 -0.92044,-3.087313 -1.944742,-5.078139 -0.875535,-1.701682 -1.887017,-3.330345 -4.007178,-6.45226 -3.05642,-4.500545 -4.167571,-6.49826 -4.759195,-8.556458 -0.241707,-0.840872 -0.257015,-0.867087 -0.505647,-0.86594 -0.81187,0.0037 -2.051046,0.563646 -2.642589,1.194012 -1.050474,1.119415 -1.492959,2.882103 -1.118952,4.457467 0.406945,1.714101 1.157327,2.994715 4.115747,7.024 2.769019,3.771327 3.908118,5.603061 5.03797,8.101334 l 0.727419,1.608433 0.657922,-0.229468 c 0.361857,-0.126207 1.062769,-0.350346 1.557581,-0.498086 z m 32.763515,-0.153605 c 1.06535,-2.620518 2.265887,-4.591953 5.439618,-8.932549 2.871645,-3.927445 3.713099,-5.371418 4.053576,-6.956127 0.542644,-2.525678 -0.738534,-4.899909 -2.953128,-5.472623 -0.301161,-0.07789 -0.66499,-0.14223 -0.808505,-0.142992 -0.248955,-0.0013 -0.270059,0.02983 -0.459534,0.67841 -0.686155,2.348731 -1.549196,3.923169 -4.664361,8.509176 -2.883149,4.244441 -3.882901,5.934119 -4.965375,8.391969 -0.728086,1.653177 -1.281419,3.316909 -1.121727,3.372738 0.05781,0.02021 0.603943,0.148396 1.213623,0.284857 1.002672,0.224419 3.705722,1.03034 3.799004,1.132681 0.06559,0.07197 0.147142,-0.07923 0.466809,-0.86554 z M 36.402028,55.957059 37.7604,55.83766 37.70639,54.662798 c -0.100042,-2.175991 -0.538954,-4.68079 -1.479217,-8.441651 -1.13964,-4.558332 -1.422931,-5.985588 -1.578301,-7.951662 -0.140977,-1.783964 0.02291,-3.811596 0.440663,-5.452146 l 0.177907,-0.698646 -0.197356,-0.167699 c -0.236148,-0.200665 -1.32934,-0.677962 -2.013667,-0.879186 -0.709657,-0.208674 -2.269882,-0.279136 -3.071921,-0.138733 -2.287088,0.400374 -3.922778,1.954955 -4.690813,4.458212 -0.181843,0.592679 -0.238827,0.98628 -0.271502,1.8753 -0.08642,2.351315 0.523311,4.208303 2.847818,8.673264 2.322196,4.460526 3.309129,6.975133 3.84634,9.800098 l 0.142962,0.751774 1.592178,-0.207633 c 0.875698,-0.114198 2.203445,-0.261362 2.950552,-0.327031 z m 11.805726,0.132855 c 0.10272,-0.68151 0.629302,-2.724097 0.938944,-3.642117 0.440248,-1.305232 1.555774,-3.767381 2.778628,-6.132886 2.49259,-4.821695 3.03163,-6.372185 3.03163,-8.720146 0,-1.458767 -0.147769,-2.131909 -0.751298,-3.422424 -0.41472,-0.886787 -1.380132,-2.009753 -2.111773,-2.456413 -1.615016,-0.985951 -3.771074,-1.149308 -5.768875,-0.437089 -0.723451,0.257913 -1.449251,0.625593 -1.534842,0.777532 -0.02822,0.05009 0.04303,0.504482 0.158323,1.009758 0.400009,1.753013 0.525399,3.356022 0.395121,5.051283 -0.162911,2.119896 -0.439927,3.577036 -1.406905,7.400497 -1.125634,4.450788 -1.603974,7.16063 -1.687873,9.561956 l -0.02614,0.748045 1.281972,0.119447 c 0.705084,0.06569 1.878089,0.198573 2.606677,0.295283 0.728587,0.09671 1.486413,0.181026 1.684057,0.187366 0.35134,0.01127 0.360535,0.0037 0.412349,-0.340092 z"
         id="path1523" />
    </g>
  </g>
  <g
     inkscape:label="glow"
     inkscape:groupmode="layer"
     id="layer-content"
     style="display:inline">
    <g
       aria-label="X"
       transform="scale(0.26458333)"
       id="icon-inner"
       style="font-size:40px;line-height:1.25;white-space:pre;shape-inside:url(#rect52404)" />
  </g>
  <path
     id="icon-glow"
     style="fill:#ffd42a;stroke-width:1;stroke-linecap:round;stroke-linejoin:round;paint-order:markers fill stroke;filter:url(#filter9820);opacity:0"
     d="m 24.946504,16.37379 c 0,0 0,3.666101 0,7.101892 l -7.600569,-7.029028 c 0,0 -1e-6,17.321425 0,17.321422 l 7.600569,-6.571692 c 0,3.047167 0,6.499347 0,6.499347 l 9.679511,-8.370033 z" />
</svg>
