<?xml version="1.0" encoding="UTF-8" standalone="no"?>
<!-- Created with Inkscape (http://www.inkscape.org/) -->

<svg
   width="80mm"
   height="80mm"
   viewBox="0 0 80 80"
   version="1.1"
   id="svg1089"
   inkscape:version="1.2.1 (9c6d41e410, 2022-07-14)"
   sodipodi:docname="empty-flag.svg"
   inkscape:export-filename="C:\NewProjects\pocket-merchant\res\img\icons\inline\might.png"
   inkscape:export-xdpi="25.4"
   inkscape:export-ydpi="25.4"
   xml:space="preserve"
   xmlns:inkscape="http://www.inkscape.org/namespaces/inkscape"
   xmlns:sodipodi="http://sodipodi.sourceforge.net/DTD/sodipodi-0.dtd"
   xmlns="http://www.w3.org/2000/svg"
   xmlns:svg="http://www.w3.org/2000/svg"><sodipodi:namedview
     id="namedview1091"
     pagecolor="#ffffff"
     bordercolor="#666666"
     borderopacity="1.0"
     inkscape:pageshadow="2"
     inkscape:pageopacity="0.0"
     inkscape:pagecheckerboard="0"
     inkscape:document-units="mm"
     showgrid="false"
     inkscape:zoom="1.2436308"
     inkscape:cx="77.595378"
     inkscape:cy="102.52239"
     inkscape:window-width="1920"
     inkscape:window-height="991"
     inkscape:window-x="-9"
     inkscape:window-y="-9"
     inkscape:window-maximized="1"
     inkscape:current-layer="layer1"
     width="80mm"
     borderlayer="true"
     inkscape:showpageshadow="0"
     inkscape:deskcolor="#d1d1d1" /><defs
     id="defs1086"><clipPath
       clipPathUnits="userSpaceOnUse"
       id="clipPath828"><path
         style="fill:#000000;stroke-width:0.999998"
         d="m 73.067254,185.20137 c -0.351364,-0.62653 -1.806996,-1.25249 -1.463074,-1.87937 3.042777,-3.04905 6.085554,-6.09811 9.128331,-9.14716 -2.106107,-2.11591 -4.212212,-4.23181 -6.318316,-6.34772 1.279853,-1.29595 2.559706,-2.59191 3.839559,-3.88786 1.422739,1.41009 2.845472,2.82018 4.268205,4.23027 1.347238,-1.34725 2.694477,-2.69449 4.04172,-4.04173 2.703788,2.69611 5.407573,5.39223 8.111355,8.08835 -1.343464,1.35763 -2.686931,2.71526 -4.030401,4.07289 1.345557,1.35975 2.691117,2.7195 4.036682,4.07925 -1.295834,1.27974 -2.591668,2.55948 -3.887504,3.83921 -2.177661,-2.1686 -4.35532,-4.3372 -6.532978,-6.50581 -3.103872,3.06476 -6.101519,6.24386 -9.336447,9.17069 -0.68842,-0.46703 -1.254887,-1.10165 -1.857132,-1.67101 z m 40.133836,-3.26711 c -1.52506,-1.52845 -3.05011,-3.05689 -4.57517,-4.58534 -2.12681,2.11797 -4.25362,4.23594 -6.38043,6.3539 -1.27925,-1.29533 -2.558491,-2.59066 -3.83773,-3.886 1.280916,-1.29703 2.56184,-2.59406 3.84276,-3.89109 -9.782733,-9.81547 -19.565469,-19.63094 -29.348207,-29.44641 -0.906698,-3.70063 -2.020885,-7.3609 -2.687402,-11.1125 3.677729,1.02317 7.319041,2.173 10.976591,3.26579 9.725181,9.7273 19.450368,19.4546 29.175548,29.1819 1.42199,-1.40934 2.84397,-2.81868 4.26595,-4.22803 1.27985,1.29595 2.55971,2.59191 3.83956,3.88786 -2.1061,2.11591 -4.2122,4.23182 -6.31831,6.34772 3.11498,3.12141 6.22996,6.24281 9.34494,9.36422 -1.17541,1.11975 -2.26603,2.34162 -3.55358,3.33332 -1.6555,-1.44794 -3.17711,-3.0435 -4.74452,-4.58534 z m -10.50192,-25.67111 c -1.68728,-1.91177 -5.546535,-4.22666 -1.89513,-6.27502 3.59455,-3.73818 7.31697,-7.3501 10.98517,-11.01539 3.65671,-1.05668 7.28518,-2.22116 10.97656,-3.15027 -0.84902,3.7658 -1.92464,7.47719 -2.89671,11.21293 -4.39173,4.34896 -8.67307,8.81595 -13.19757,13.02587 -1.40194,-1.1783 -2.66347,-2.51911 -3.97232,-3.79812 z"
         id="path830" /></clipPath><clipPath
       clipPathUnits="userSpaceOnUse"
       id="clipPath832"><path
         style="fill:#000000;stroke-width:0.999998"
         d="m 73.067254,185.20137 c -0.351364,-0.62653 -1.806996,-1.25249 -1.463074,-1.87937 3.042777,-3.04905 6.085554,-6.09811 9.128331,-9.14716 -2.106107,-2.11591 -4.212212,-4.23181 -6.318316,-6.34772 1.279853,-1.29595 2.559706,-2.59191 3.839559,-3.88786 1.422739,1.41009 2.845472,2.82018 4.268205,4.23027 1.347238,-1.34725 2.694477,-2.69449 4.04172,-4.04173 2.703788,2.69611 5.407573,5.39223 8.111355,8.08835 -1.343464,1.35763 -2.686931,2.71526 -4.030401,4.07289 1.345557,1.35975 2.691117,2.7195 4.036682,4.07925 -1.295834,1.27974 -2.591668,2.55948 -3.887504,3.83921 -2.177661,-2.1686 -4.35532,-4.3372 -6.532978,-6.50581 -3.103872,3.06476 -6.101519,6.24386 -9.336447,9.17069 -0.68842,-0.46703 -1.254887,-1.10165 -1.857132,-1.67101 z m 40.133836,-3.26711 c -1.52506,-1.52845 -3.05011,-3.05689 -4.57517,-4.58534 -2.12681,2.11797 -4.25362,4.23594 -6.38043,6.3539 -1.27925,-1.29533 -2.558491,-2.59066 -3.83773,-3.886 1.280916,-1.29703 2.56184,-2.59406 3.84276,-3.89109 -9.782733,-9.81547 -19.565469,-19.63094 -29.348207,-29.44641 -0.906698,-3.70063 -2.020885,-7.3609 -2.687402,-11.1125 3.677729,1.02317 7.319041,2.173 10.976591,3.26579 9.725181,9.7273 19.450368,19.4546 29.175548,29.1819 1.42199,-1.40934 2.84397,-2.81868 4.26595,-4.22803 1.27985,1.29595 2.55971,2.59191 3.83956,3.88786 -2.1061,2.11591 -4.2122,4.23182 -6.31831,6.34772 3.11498,3.12141 6.22996,6.24281 9.34494,9.36422 -1.17541,1.11975 -2.26603,2.34162 -3.55358,3.33332 -1.6555,-1.44794 -3.17711,-3.0435 -4.74452,-4.58534 z m -10.50192,-25.67111 c -1.68728,-1.91177 -5.546535,-4.22666 -1.89513,-6.27502 3.59455,-3.73818 7.31697,-7.3501 10.98517,-11.01539 3.65671,-1.05668 7.28518,-2.22116 10.97656,-3.15027 -0.84902,3.7658 -1.92464,7.47719 -2.89671,11.21293 -4.39173,4.34896 -8.67307,8.81595 -13.19757,13.02587 -1.40194,-1.1783 -2.66347,-2.51911 -3.97232,-3.79812 z"
         id="path834" /></clipPath><clipPath
       clipPathUnits="userSpaceOnUse"
       id="clipPath1737"><path
         style="fill:#000000;stroke-width:0.999998"
         d="M 27.563011,64.629681 C 24.213039,64.191602 20.938368,63.078106 19.279948,61.813167 17.7347,60.634549 17.386052,59.772404 17.38494,57.127159 l -9.79e-4,-2.354234 0.595313,0.862835 c 1.41954,2.057456 5.691045,3.687956 11.130777,4.248791 7.340111,0.756769 15.845234,-1.405774 17.496975,-4.448842 0.366848,-0.675854 0.389686,-0.579191 0.399674,1.69145 0.01249,2.839582 -0.398965,3.68196 -2.458386,5.033089 -3.344328,2.194118 -10.800787,3.278185 -16.985292,2.469433 z m 0.933439,-7.31556 c -4.830479,-0.512278 -9.372339,-2.390193 -10.582905,-4.3757 -0.424837,-0.696794 -0.52694,-1.329227 -0.524147,-3.246615 l 0.0035,-2.38125 0.543736,0.848908 c 1.039671,1.623189 4.242119,3.147679 8.209611,3.908091 3.211734,0.615564 9.427643,0.563835 12.619145,-0.105016 3.688834,-0.77308 6.695133,-2.296744 7.78138,-3.943794 0.464063,-0.703649 0.467069,-0.692745 0.468802,1.70008 0.0016,2.07082 -0.08291,2.53424 -0.602438,3.307292 -0.72903,1.084797 -2.866326,2.410431 -5.059608,3.138172 -3.172365,1.0526 -8.923761,1.566961 -12.857044,1.149832 z m 21.166667,-2.172258 v -2.355146 l 3.108854,-0.169715 c 6.904845,-0.376941 11.960262,-2.08389 13.618517,-4.598257 0.464238,-0.703911 0.467064,-0.693806 0.467813,1.673061 7.93e-4,2.841998 -0.400146,3.69702 -2.298891,4.901168 -2.735826,1.735011 -7.608223,2.880545 -12.316603,2.895722 l -2.57969,0.0083 z M 27.834992,49.805619 c -7.539688,-1.0356 -11.742726,-4.124539 -10.054444,-7.38932 1.619313,-3.131402 9.854993,-5.26864 17.393298,-4.513723 13.691129,1.371089 16.190666,8.676968 3.905938,11.416641 -2.671469,0.595776 -8.585904,0.851609 -11.244792,0.486402 z m 21.828125,-2.15351 v -2.518611 l 3.902604,-0.143134 c 5.926566,-0.217363 10.144213,-1.525484 12.236313,-3.795146 l 1.059,-1.14888 v 2.256185 c 0,2.560809 -0.326237,3.433886 -1.664531,4.454654 -2.408526,1.837071 -6.594837,2.963781 -12.027657,3.237146 l -3.505729,0.176395 z m -0.654164,-6.109642 c -0.648943,-1.367549 -2.803522,-3.272504 -4.710705,-4.164933 -1.701101,-0.795999 -5.363003,-1.840936 -6.451412,-1.840936 -0.574548,0 -0.619135,-0.105458 -0.619135,-1.464416 v -1.464416 l 0.830037,0.945361 c 2.24582,2.557849 7.417512,4.097555 13.769046,4.099293 7.064497,0.0019 12.580282,-1.706496 14.431894,-4.470056 l 0.602356,-0.899022 -0.0011,2.354231 c -0.0011,2.81224 -0.407829,3.673768 -2.300635,4.874151 -2.690616,1.706338 -6.376955,2.603982 -11.624537,2.830634 l -3.47512,0.150096 -0.450799,-0.949987 z M 48.869367,35.01495 C 43.355649,34.452078 39.069111,32.765058 37.756613,30.641393 37.334695,29.958715 37.2277,29.323437 37.2277,27.500958 v -2.284636 l 0.958702,1.061167 c 1.183363,1.309843 3.524589,2.452554 6.612393,3.227397 2.009153,0.504169 3.062118,0.589897 7.245572,0.589897 4.183454,0 5.236419,-0.08573 7.245572,-0.589897 3.087804,-0.774843 5.429031,-1.917554 6.612396,-3.227397 l 0.958699,-1.061167 v 2.284636 c 0,2.670101 -0.407395,3.565798 -2.144808,4.715563 -3.220543,2.131256 -10.239909,3.370821 -15.846859,2.798429 z M 47.149575,27.409386 C 45.310832,27.153579 42.074661,26.192871 40.679711,25.488704 38.698408,24.488544 37.2277,22.867719 37.2277,21.684337 c 0,-6.105573 18.650509,-8.543132 27.013059,-3.530516 3.848936,2.3071 3.345529,5.367967 -1.231905,7.490343 -2.917523,1.352742 -6.463448,1.96248 -11.138339,1.915291 -2.159955,-0.0218 -4.284377,-0.08933 -4.72094,-0.150069 z"
         id="path1739" /></clipPath></defs><g
     inkscape:label="Ebene 1"
     inkscape:groupmode="layer"
     id="layer1"><path
       style="fill:#000000;stroke-width:0.102104"
       d="M 19.402804,72.380514 C 18.283571,72.002729 17.867637,71.274279 17.617805,69.25434 17.118594,65.218101 16.361589,62.746683 14.864601,60.265859 13.586454,58.1477 11.851322,56.061408 6.9481355,50.747235 3.8764709,47.418103 2.5609132,45.550303 1.8529399,43.513188 1.3708885,42.126136 1.2509521,41.316059 1.3087923,39.837897 c 0.061186,-1.563744 0.3495619,-2.757918 1.0113414,-4.188035 0.3632061,-0.784893 0.6217118,-1.163072 1.3278983,-1.94263 1.3214678,-1.458763 2.822082,-2.274526 4.9367748,-2.68373 1.1134761,-0.215463 3.0762402,-0.213141 4.2206502,0.0049 0.494821,0.09433 0.931804,0.130616 0.971073,0.08067 0.03927,-0.04995 0.192389,-0.47802 0.340265,-0.951264 0.969043,-3.101257 3.103142,-5.572295 5.817799,-6.736329 4.888656,-2.096235 10.935017,-0.855593 15.234715,3.125987 l 0.708437,0.656018 0.426683,-0.942837 c 0.773635,-1.709484 1.364675,-3.875973 1.65474,-6.065531 0.224032,-1.691123 0.24538,-1.599522 -0.372776,-1.599522 -0.741937,0 -2.720591,0.293757 -4.028261,0.59805 -0.611336,0.142256 -1.145053,0.221436 -1.186038,0.175957 -0.04099,-0.04549 -0.162358,-0.463781 -0.269712,-0.929556 -0.324681,-1.408676 -0.230394,-3.66531 0.196592,-4.70519 l 0.109972,-0.267822 0.713982,0.188757 c 0.763027,0.20172 3.119689,0.581914 4.297,0.693219 l 0.714783,0.06758 -0.06877,-0.948942 C 37.970151,12.146013 37.755336,10.47512 37.517429,9.2011629 37.327538,8.1843131 37.325505,8.1139053 37.482389,7.9866212 c 0.545581,-0.4426789 2.963559,-0.616306 4.208212,-0.3021771 1.047015,0.2642463 1.020724,0.2031281 0.741577,1.7240233 -0.24354,1.3268906 -0.541022,3.8552466 -0.541234,4.6000526 l -9.6e-5,0.414249 0.70273,-0.07081 c 1.304699,-0.13147 2.247891,-0.278215 3.593434,-0.559085 0.819406,-0.171042 1.374626,-0.241092 1.429378,-0.180336 0.04926,0.05464 0.182428,0.506983 0.29597,1.005209 0.17444,0.76545 0.198448,1.106446 0.154884,2.199862 -0.0463,1.162058 -0.21428,2.120973 -0.438603,2.503741 -0.0618,0.105456 -0.266529,0.0887 -0.955962,-0.07827 -1.226288,-0.296986 -2.656134,-0.525226 -3.821035,-0.609937 l -0.99153,-0.07211 0.06653,0.797062 c 0.20185,2.418209 1.22126,6.186789 2.056306,7.601807 l 0.143908,0.243855 0.695835,-0.664551 c 2.399571,-2.291679 5.624233,-3.733882 9.128355,-4.082576 2.130545,-0.21201 4.528185,0.208587 6.50158,1.140517 1.33354,0.629761 2.998187,2.102969 3.945874,3.492089 0.559114,0.819547 1.365587,2.557216 1.590537,3.427052 0.0867,0.335244 0.170143,0.62531 0.185433,0.644588 0.01529,0.01927 0.500651,-0.04724 1.078578,-0.147817 1.515671,-0.263779 3.697681,-0.174139 5.02484,0.206431 1.136649,0.32594 2.671191,1.139848 3.462457,1.836459 1.154491,1.016385 2.052042,2.514733 2.538723,4.238071 1.045818,3.70322 0.186777,6.957477 -2.829272,10.718035 -0.474436,0.59155 -2.22784,2.551745 -3.896456,4.355988 -7.030985,7.602468 -8.277026,9.880162 -9.205661,16.827436 -0.223381,1.67115 -0.434915,2.285746 -0.931321,2.705888 -0.723764,0.612561 0.490723,0.580351 -21.503723,0.570318 -11.146772,-0.0052 -20.376184,-0.04615 -20.509804,-0.09125 z m 3.492632,-11.300897 c 0.561183,-0.16947 1.498965,-0.410793 2.083961,-0.536275 0.584995,-0.125482 1.117896,-0.248014 1.184225,-0.272295 0.260861,-0.09548 -1.043898,-3.541379 -2.205593,-5.825005 -0.992972,-1.95196 -2.140126,-3.820157 -4.544668,-7.401228 -3.466383,-5.162467 -4.726573,-7.453995 -5.397554,-9.814902 -0.274128,-0.964544 -0.291489,-0.994615 -0.57347,-0.993301 -0.920769,0.0043 -2.326158,0.646546 -2.997045,1.369623 -1.1913758,1.284054 -1.6932124,3.305988 -1.2690394,5.113051 0.4615287,1.966204 1.3125614,3.435164 4.6677994,8.057057 3.140432,4.325995 4.432321,6.427132 5.713722,9.292841 l 0.824991,1.844992 0.74617,-0.263217 c 0.410393,-0.144769 1.205319,-0.401874 1.766501,-0.571341 z M 60.053584,60.90342 c 1.208247,-3.005931 2.569815,-5.267317 6.169244,-10.246307 3.256824,-4.505074 4.211143,-6.16142 4.597289,-7.979201 0.615431,-2.897144 -0.837593,-5.620565 -3.349236,-6.277512 -0.341557,-0.08934 -0.754186,-0.163147 -0.916951,-0.164021 -0.282348,-0.0015 -0.306282,0.03421 -0.521171,0.778188 -0.778192,2.694171 -1.756993,4.500169 -5.290003,9.760665 -3.26987,4.868695 -4.40372,6.806882 -5.631389,9.626221 -0.825745,1.896318 -1.453299,3.804744 -1.272186,3.868783 0.06556,0.02318 0.68495,0.170223 1.376409,0.326753 1.137161,0.257426 4.202776,1.181878 4.308571,1.299271 0.07439,0.08255 0.166879,-0.09089 0.529423,-0.99284 z m -24.134147,-1.992364 1.540574,-0.13696 -0.06126,-1.347656 c -0.11346,-2.496022 -0.611244,-5.369216 -1.677626,-9.683209 -1.292503,-5.228749 -1.613792,-6.86592 -1.790001,-9.121154 -0.159887,-2.04634 0.02598,-4.372188 0.49977,-6.25402 l 0.201775,-0.8014 -0.223829,-0.192366 c -0.267824,-0.230177 -1.507646,-0.777673 -2.283764,-1.008492 -0.804845,-0.239363 -2.574346,-0.320188 -3.483964,-0.159137 -2.593859,0.459261 -4.448949,2.242481 -5.320001,5.113904 -0.206233,0.679849 -0.270861,1.131338 -0.307918,2.151113 -0.09802,2.697135 0.593504,4.82724 3.2298,9.948886 2.633677,5.116559 3.752989,8.001003 4.362258,11.241449 l 0.162137,0.862342 1.805739,-0.238171 c 0.993159,-0.13099 2.498999,-0.299801 3.346315,-0.375129 z m 13.389253,0.152396 c 0.116497,-0.781744 0.713711,-3.124744 1.064885,-4.177785 0.499299,-1.497198 1.764452,-4.321468 3.151331,-7.034881 2.826925,-5.530846 3.438268,-7.309376 3.438268,-10.002665 0,-1.673313 -0.167589,-2.445458 -0.852071,-3.925776 -0.470348,-1.01721 -1.56525,-2.305338 -2.395029,-2.81769 -1.831641,-1.130961 -4.276895,-1.318345 -6.542664,-0.501374 -0.82049,0.295844 -1.643643,0.717602 -1.740715,0.891887 -0.03199,0.05746 0.0488,0.578678 0.179561,1.158268 0.453661,2.010838 0.59587,3.84961 0.448118,5.794201 -0.184762,2.431681 -0.498935,4.103131 -1.595615,8.488929 -1.276617,5.105389 -1.819117,8.213781 -1.914271,10.968283 l -0.02965,0.858064 1.453926,0.137014 c 0.79966,0.07536 2.130001,0.22778 2.956317,0.338713 0.826313,0.110933 1.685787,0.207649 1.909942,0.214923 0.398466,0.01292 0.408893,0.0043 0.467659,-0.390111 z"
       id="path192" /></g></svg>
