<?xml version="1.0" encoding="UTF-8" standalone="no"?>
<!-- Created with Inkscape (http://www.inkscape.org/) -->

<svg
   width="100"
   height="30"
   viewBox="0 0 26.458332 7.9375002"
   version="1.1"
   id="svg5"
   inkscape:version="1.2-dev (42c0364, 2021-07-08)"
   sodipodi:docname="menu_top.svg"
   inkscape:export-filename="C:\NewProjects\pocket-merchant\res\img\ui\backgrounds\menu_top.png"
   inkscape:export-xdpi="25.4"
   inkscape:export-ydpi="25.4"
   xmlns:inkscape="http://www.inkscape.org/namespaces/inkscape"
   xmlns:sodipodi="http://sodipodi.sourceforge.net/DTD/sodipodi-0.dtd"
   xmlns:xlink="http://www.w3.org/1999/xlink"
   xmlns="http://www.w3.org/2000/svg"
   xmlns:svg="http://www.w3.org/2000/svg">
  <sodipodi:namedview
     id="namedview7"
     pagecolor="#ffffff"
     bordercolor="#666666"
     borderopacity="1.0"
     inkscape:pageshadow="2"
     inkscape:pageopacity="0.0"
     inkscape:pagecheckerboard="0"
     inkscape:document-units="mm"
     showgrid="false"
     units="px"
     borderlayer="true"
     inkscape:zoom="9.949046"
     inkscape:cx="50.758636"
     inkscape:cy="36.083862"
     inkscape:window-width="1920"
     inkscape:window-height="1001"
     inkscape:window-x="-9"
     inkscape:window-y="-9"
     inkscape:window-maximized="1"
     inkscape:current-layer="layer1" />
  <defs
     id="defs2">
    <linearGradient
       inkscape:collect="always"
       id="linearGradient2253">
      <stop
         style="stop-color:#4762ad;stop-opacity:1;"
         offset="0"
         id="stop2249" />
      <stop
         style="stop-color:#1d1d4c;stop-opacity:1;"
         offset="1"
         id="stop2251" />
    </linearGradient>
    <linearGradient
       inkscape:collect="always"
       xlink:href="#linearGradient2253"
       id="linearGradient2255"
       x1="13.163951"
       y1="0.3989076"
       x2="13.137357"
       y2="7.2335243"
       gradientUnits="userSpaceOnUse" />
  </defs>
  <g
     inkscape:label="Layer 1"
     inkscape:groupmode="layer"
     id="layer1">
    <rect
       style="fill:url(#linearGradient2255);stroke-width:1.619;stroke-linecap:round;stroke-linejoin:round;stroke-opacity:0.993651;paint-order:markers fill stroke;fill-opacity:1"
       id="rect950"
       width="27.304401"
       height="8.6877642"
       x="-0.41370305"
       y="-0.30087495" />
    <path
       style="fill:none;stroke:#bcbcbc;stroke-width:0.8;stroke-linecap:butt;stroke-linejoin:miter;stroke-miterlimit:4;stroke-dasharray:none;stroke-opacity:1"
       d="M -0.92272155,7.6617359 H 27.399717"
       id="path1015"
       sodipodi:nodetypes="cc" />
  </g>
</svg>
