# MagicaVoxel @ Ephtracy

# group
o 

# material
mtllib shrooms.mtl
usemtl palette

# normals
vn -1 0 0
vn 1 0 0
vn 0 0 1
vn 0 0 -1
vn 0 -1 0
vn 0 1 0

# texcoords
vt 0.146484 0.5
vt 0.298828 0.5
vt 0.302734 0.5
vt 0.345703 0.5
vt 0.962891 0.5

# verts
v -0.6 0.5 0
v -0.6 0.5 -0.2
v -0.6 0.5 -0.3
v -0.6 0.6 0
v -0.6 0.6 -0.2
v -0.6 0.6 -0.3
v -0.5 0.5 0.1
v -0.5 0.5 0
v -0.5 0.5 -0.3
v -0.5 0.5 -0.4
v -0.5 0.6 0.1
v -0.5 0.6 0
v -0.5 0.6 -0.3
v -0.5 0.6 -0.4
v -0.4 0 -0.2
v -0.4 0 -0.3
v -0.4 0.1 -0.2
v -0.4 0.1 -0.3
v -0.4 0.5 0.2
v -0.4 0.5 0.1
v -0.4 0.5 -0.4
v -0.4 0.5 -0.5
v -0.4 0.6 0.2
v -0.4 0.6 0.1
v -0.4 0.6 0
v -0.4 0.6 -0.1
v -0.4 0.6 -0.2
v -0.4 0.6 -0.3
v -0.4 0.6 -0.4
v -0.4 0.6 -0.5
v -0.4 0.7 0
v -0.4 0.7 -0.1
v -0.4 0.7 -0.2
v -0.4 0.7 -0.3
v -0.3 0 -0.1
v -0.3 0 -0.2
v -0.3 0 -0.3
v -0.3 0 -0.4
v -0.3 0.1 -0.2
v -0.3 0.1 -0.3
v -0.3 0.1 -0.4
v -0.3 0.2 -0.2
v -0.3 0.2 -0.3
v -0.3 0.4 -0.2
v -0.3 0.4 -0.3
v -0.3 0.5 -0.1
v -0.3 0.5 -0.2
v -0.3 0.6 0.1
v -0.3 0.6 0
v -0.3 0.6 -0.1
v -0.3 0.6 -0.2
v -0.3 0.6 -0.3
v -0.3 0.6 -0.4
v -0.3 0.7 0.1
v -0.3 0.7 0
v -0.3 0.7 -0.3
v -0.3 0.7 -0.4
v -0.2 0.5 0.1
v -0.2 0.5 0
v -0.2 0.6 0.1
v -0.2 0.6 0
v -0.1 0.5 0.6
v -0.1 0.5 0.4
v -0.1 0.5 0
v -0.1 0.5 -0.3
v -0.1 0.6 0.6
v -0.1 0.6 0.4
v -0.1 0.6 0
v -0.1 0.6 -0.2
v -0.1 0.6 -0.3
v 0 0 0.4
v 0 0 0.3
v 0 0.1 0.4
v 0 0.1 0.3
v 0 0.4 0.7
v 0 0.4 0.6
v 0 0.5 0.7
v 0 0.5 0.6
v 0 0.5 0.4
v 0 0.5 0.2
v 0 0.6 0.4
v 0 0.6 0.2
v 0.1 0 0.3
v 0.1 0 0.2
v 0.1 0.1 0.4
v 0.1 0.1 0.3
v 0.1 0.1 0.2
v 0.1 0.2 0.5
v 0.1 0.2 0.4
v 0.1 0.3 0.4
v 0.1 0.3 0.3
v 0.1 0.4 0.6
v 0.1 0.4 0.5
v 0.1 0.4 0.4
v 0.1 0.5 0.6
v 0.1 0.5 0.4
v 0.1 0.6 0.4
v 0.1 0.6 0.2
v 0.1 0.7 0.4
v 0.1 0.7 0.2
v 0.3 0 -0.1
v 0.3 0 -0.2
v 0.3 0.1 -0.1
v 0.3 0.1 -0.2
v 0.3 0.3 -0.1
v 0.3 0.3 -0.2
v 0.3 0.4 -0.1
v 0.3 0.4 -0.2
v 0.4 0.1 -0.1
v 0.4 0.1 -0.2
v 0.4 0.3 0
v 0.4 0.3 -0.1
v 0.4 0.3 -0.2
v 0.4 0.3 -0.3
v 0.4 0.4 0
v 0.4 0.4 -0.1
v 0.4 0.4 -0.2
v 0.4 0.4 -0.3
v 0.4 0.5 -0.1
v 0.4 0.5 -0.2
v -0.4 0.5 -0.1
v -0.4 0.5 -0.2
v -0.4 0.6 -0.1
v -0.4 0.6 -0.2
v -0.3 0.5 0.1
v -0.3 0.5 -0.1
v -0.3 0.5 -0.2
v -0.3 0.5 -0.3
v -0.3 0.6 0.1
v -0.3 0.6 -0.1
v -0.3 0.6 -0.2
v -0.3 0.6 -0.3
v -0.2 0 -0.1
v -0.2 0 -0.4
v -0.2 0.1 -0.3
v -0.2 0.1 -0.4
v -0.2 0.2 -0.1
v -0.2 0.2 -0.2
v -0.2 0.2 -0.3
v -0.2 0.3 -0.1
v -0.2 0.3 -0.2
v -0.2 0.4 -0.2
v -0.2 0.4 -0.3
v -0.2 0.5 -0.1
v -0.2 0.5 -0.2
v -0.2 0.6 0.1
v -0.2 0.6 0
v -0.2 0.6 -0.1
v -0.2 0.6 -0.2
v -0.2 0.6 -0.3
v -0.2 0.6 -0.4
v -0.2 0.7 0.1
v -0.2 0.7 0
v -0.2 0.7 -0.3
v -0.2 0.7 -0.4
v -0.1 0.2 -0.1
v -0.1 0.2 -0.2
v -0.1 0.3 -0.1
v -0.1 0.3 -0.2
v -0.1 0.5 0.2
v -0.1 0.5 0.1
v -0.1 0.5 -0.4
v -0.1 0.5 -0.5
v -0.1 0.6 0.2
v -0.1 0.6 0.1
v -0.1 0.6 0
v -0.1 0.6 -0.2
v -0.1 0.6 -0.3
v -0.1 0.6 -0.4
v -0.1 0.6 -0.5
v -0.1 0.7 0
v -0.1 0.7 -0.2
v -0.1 0.7 -0.3
v 0 0.5 0.1
v 0 0.5 0
v 0 0.5 -0.3
v 0 0.5 -0.4
v 0 0.6 0.1
v 0 0.6 0
v 0 0.6 -0.3
v 0 0.6 -0.4
v 0.1 0.5 0.3
v 0.1 0.5 0.2
v 0.1 0.5 0
v 0.1 0.5 -0.1
v 0.1 0.5 -0.2
v 0.1 0.5 -0.3
v 0.1 0.6 0.3
v 0.1 0.6 0.2
v 0.1 0.6 0
v 0.1 0.6 -0.1
v 0.1 0.6 -0.2
v 0.1 0.6 -0.3
v 0.2 0 0.4
v 0.2 0 0.2
v 0.2 0.1 0.3
v 0.2 0.1 0.2
v 0.2 0.2 0.5
v 0.2 0.2 0.4
v 0.2 0.3 0.4
v 0.2 0.3 0.3
v 0.2 0.4 0.7
v 0.2 0.4 0.5
v 0.2 0.4 0.4
v 0.2 0.5 0.7
v 0.2 0.5 0.6
v 0.2 0.5 0.4
v 0.2 0.6 0.3
v 0.2 0.6 0.2
v 0.2 0.7 0.3
v 0.2 0.7 0.2
v 0.3 0.5 0.6
v 0.3 0.5 0.5
v 0.3 0.5 0.4
v 0.3 0.5 0.3
v 0.3 0.6 0.6
v 0.3 0.6 0.5
v 0.3 0.6 0.4
v 0.3 0.7 0.4
v 0.3 0.7 0.3
v 0.4 0 -0.1
v 0.4 0 -0.2
v 0.4 0.1 -0.1
v 0.4 0.1 -0.2
v 0.4 0.5 0.5
v 0.4 0.5 0.4
v 0.4 0.6 0.5
v 0.4 0.6 0.4
v 0.5 0.1 -0.1
v 0.5 0.1 -0.2
v 0.5 0.3 0
v 0.5 0.3 -0.1
v 0.5 0.3 -0.2
v 0.5 0.3 -0.3
v 0.5 0.4 0
v 0.5 0.4 -0.1
v 0.5 0.4 -0.2
v 0.5 0.4 -0.3
v 0.5 0.5 -0.1
v 0.5 0.5 -0.2
v 0.6 0.3 -0.1
v 0.6 0.3 -0.2
v 0.6 0.4 -0.1
v 0.6 0.4 -0.2
v 0 0.4 0.7
v 0 0.5 0.7
v 0.2 0.4 0.7
v 0.2 0.5 0.7
v -0.1 0.5 0.6
v -0.1 0.6 0.6
v 0 0.5 0.6
v 0.2 0.5 0.6
v 0.3 0.5 0.6
v 0.3 0.6 0.6
v 0.1 0.2 0.5
v 0.1 0.4 0.5
v 0.2 0.2 0.5
v 0.2 0.4 0.5
v 0.3 0.5 0.5
v 0.3 0.6 0.5
v 0.4 0.5 0.5
v 0.4 0.6 0.5
v 0 0 0.4
v 0 0.1 0.4
v 0.1 0.1 0.4
v 0.1 0.2 0.4
v 0.1 0.6 0.4
v 0.1 0.7 0.4
v 0.2 0 0.4
v 0.2 0.2 0.4
v 0.3 0.6 0.4
v 0.3 0.7 0.4
v -0.4 0.5 0.2
v -0.4 0.6 0.2
v -0.2 0.5 0.2
v -0.2 0.6 0.2
v -0.1 0.5 0.2
v -0.1 0.6 0.2
v -0.5 0.5 0.1
v -0.5 0.6 0.1
v -0.4 0.5 0.1
v -0.4 0.6 0.1
v -0.3 0.6 0.1
v -0.3 0.7 0.1
v -0.2 0.6 0.1
v -0.2 0.7 0.1
v -0.1 0.5 0.1
v -0.1 0.6 0.1
v 0 0.5 0.1
v 0 0.6 0.1
v -0.6 0.5 0
v -0.6 0.6 0
v -0.5 0.5 0
v -0.5 0.6 0
v -0.4 0.6 0
v -0.4 0.7 0
v -0.3 0.6 0
v -0.3 0.7 0
v -0.2 0.6 0
v -0.2 0.7 0
v -0.1 0.6 0
v -0.1 0.7 0
v 0 0.5 0
v 0 0.6 0
v 0.1 0.5 0
v 0.1 0.6 0
v 0.4 0.3 0
v 0.4 0.4 0
v 0.5 0.3 0
v 0.5 0.4 0
v -0.3 0 -0.1
v -0.3 0.5 -0.1
v -0.3 0.6 -0.1
v -0.2 0 -0.1
v -0.2 0.2 -0.1
v -0.2 0.3 -0.1
v -0.2 0.5 -0.1
v -0.2 0.6 -0.1
v -0.1 0.2 -0.1
v -0.1 0.3 -0.1
v 0.3 0 -0.1
v 0.3 0.1 -0.1
v 0.3 0.3 -0.1
v 0.3 0.4 -0.1
v 0.4 0 -0.1
v 0.4 0.1 -0.1
v 0.4 0.3 -0.1
v 0.4 0.4 -0.1
v 0.4 0.5 -0.1
v 0.5 0.1 -0.1
v 0.5 0.3 -0.1
v 0.5 0.4 -0.1
v 0.5 0.5 -0.1
v 0.6 0.3 -0.1
v 0.6 0.4 -0.1
v -0.4 0 -0.2
v -0.4 0.1 -0.2
v -0.4 0.5 -0.2
v -0.4 0.6 -0.2
v -0.3 0 -0.2
v -0.3 0.1 -0.2
v -0.3 0.5 -0.2
v -0.3 0.6 -0.2
v -0.3 0.5 -0.3
v -0.3 0.6 -0.3
v -0.2 0.6 -0.3
v -0.1 0.5 -0.3
v -0.1 0.6 -0.3
v 0 0.4 0.6
v 0 0.5 0.6
v 0.1 0.4 0.6
v 0.1 0.5 0.6
v -0.1 0.5 0.4
v -0.1 0.6 0.4
v 0 0.5 0.4
v 0 0.6 0.4
v 0.1 0.3 0.4
v 0.1 0.4 0.4
v 0.1 0.5 0.4
v 0.2 0.3 0.4
v 0.2 0.4 0.4
v 0.2 0.5 0.4
v 0.3 0.5 0.4
v 0.3 0.6 0.4
v 0.4 0.5 0.4
v 0.4 0.6 0.4
v 0 0 0.3
v 0 0.1 0.3
v 0.1 0 0.3
v 0.1 0.1 0.3
v 0.1 0.3 0.3
v 0.1 0.5 0.3
v 0.1 0.6 0.3
v 0.2 0.1 0.3
v 0.2 0.3 0.3
v 0.2 0.6 0.3
v 0.2 0.7 0.3
v 0.3 0.5 0.3
v 0.3 0.7 0.3
v 0 0.5 0.2
v 0 0.6 0.2
v 0.1 0 0.2
v 0.1 0.1 0.2
v 0.1 0.5 0.2
v 0.1 0.6 0.2
v 0.1 0.7 0.2
v 0.2 0 0.2
v 0.2 0.1 0.2
v 0.2 0.6 0.2
v 0.2 0.7 0.2
v -0.3 0.5 0.1
v -0.3 0.6 0.1
v -0.2 0.5 0.1
v -0.2 0.6 0.1
v -0.2 0.5 0
v -0.2 0.6 0
v -0.1 0.5 0
v -0.1 0.6 0
v -0.4 0.5 -0.1
v -0.4 0.6 -0.1
v -0.3 0.5 -0.1
v -0.3 0.6 -0.1
v -0.3 0.4 -0.2
v -0.3 0.5 -0.2
v -0.3 0.6 -0.2
v -0.2 0.2 -0.2
v -0.2 0.3 -0.2
v -0.2 0.4 -0.2
v -0.2 0.5 -0.2
v -0.2 0.6 -0.2
v -0.1 0.2 -0.2
v -0.1 0.3 -0.2
v 0.3 0 -0.2
v 0.3 0.1 -0.2
v 0.3 0.3 -0.2
v 0.3 0.4 -0.2
v 0.4 0 -0.2
v 0.4 0.1 -0.2
v 0.4 0.3 -0.2
v 0.4 0.4 -0.2
v 0.4 0.5 -0.2
v 0.5 0.1 -0.2
v 0.5 0.3 -0.2
v 0.5 0.4 -0.2
v 0.5 0.5 -0.2
v 0.6 0.3 -0.2
v 0.6 0.4 -0.2
v -0.6 0.5 -0.3
v -0.6 0.6 -0.3
v -0.5 0.5 -0.3
v -0.5 0.6 -0.3
v -0.4 0 -0.3
v -0.4 0.1 -0.3
v -0.4 0.6 -0.3
v -0.4 0.7 -0.3
v -0.3 0 -0.3
v -0.3 0.1 -0.3
v -0.3 0.2 -0.3
v -0.3 0.4 -0.3
v -0.3 0.6 -0.3
v -0.3 0.7 -0.3
v -0.2 0.1 -0.3
v -0.2 0.2 -0.3
v -0.2 0.4 -0.3
v -0.2 0.6 -0.3
v -0.2 0.7 -0.3
v -0.1 0.6 -0.3
v -0.1 0.7 -0.3
v 0 0.5 -0.3
v 0 0.6 -0.3
v 0.1 0.5 -0.3
v 0.1 0.6 -0.3
v 0.4 0.3 -0.3
v 0.4 0.4 -0.3
v 0.5 0.3 -0.3
v 0.5 0.4 -0.3
v -0.5 0.5 -0.4
v -0.5 0.6 -0.4
v -0.4 0.5 -0.4
v -0.4 0.6 -0.4
v -0.3 0 -0.4
v -0.3 0.1 -0.4
v -0.3 0.6 -0.4
v -0.3 0.7 -0.4
v -0.2 0 -0.4
v -0.2 0.1 -0.4
v -0.2 0.6 -0.4
v -0.2 0.7 -0.4
v -0.1 0.5 -0.4
v -0.1 0.6 -0.4
v 0 0.5 -0.4
v 0 0.6 -0.4
v -0.4 0.5 -0.5
v -0.4 0.6 -0.5
v -0.3 0.5 -0.5
v -0.3 0.6 -0.5
v -0.2 0.5 -0.5
v -0.2 0.6 -0.5
v -0.1 0.5 -0.5
v -0.1 0.6 -0.5
v 0 0 0.4
v 0.2 0 0.4
v 0 0 0.3
v 0.1 0 0.3
v 0.1 0 0.2
v 0.2 0 0.2
v -0.3 0 -0.1
v -0.2 0 -0.1
v 0.3 0 -0.1
v 0.4 0 -0.1
v -0.4 0 -0.2
v -0.3 0 -0.2
v 0.3 0 -0.2
v 0.4 0 -0.2
v -0.4 0 -0.3
v -0.3 0 -0.3
v -0.3 0 -0.4
v -0.2 0 -0.4
v 0.4 0.1 -0.1
v 0.5 0.1 -0.1
v 0.4 0.1 -0.2
v 0.5 0.1 -0.2
v 0.1 0.2 0.5
v 0.2 0.2 0.5
v 0.1 0.2 0.4
v 0.2 0.2 0.4
v -0.2 0.2 -0.1
v -0.1 0.2 -0.1
v -0.2 0.2 -0.2
v -0.1 0.2 -0.2
v 0.4 0.3 0
v 0.5 0.3 0
v 0.3 0.3 -0.1
v 0.4 0.3 -0.1
v 0.5 0.3 -0.1
v 0.6 0.3 -0.1
v 0.3 0.3 -0.2
v 0.4 0.3 -0.2
v 0.5 0.3 -0.2
v 0.6 0.3 -0.2
v 0.4 0.3 -0.3
v 0.5 0.3 -0.3
v 0 0.4 0.7
v 0.2 0.4 0.7
v 0 0.4 0.6
v 0.1 0.4 0.6
v 0.1 0.4 0.5
v 0.2 0.4 0.5
v -0.1 0.5 0.6
v 0 0.5 0.6
v 0.1 0.5 0.6
v 0.2 0.5 0.6
v 0.3 0.5 0.6
v 0.3 0.5 0.5
v 0.4 0.5 0.5
v -0.1 0.5 0.4
v 0 0.5 0.4
v 0.1 0.5 0.4
v 0.2 0.5 0.4
v 0.3 0.5 0.4
v 0.4 0.5 0.4
v 0.1 0.5 0.3
v 0.3 0.5 0.3
v -0.4 0.5 0.2
v -0.2 0.5 0.2
v -0.1 0.5 0.2
v 0 0.5 0.2
v 0.1 0.5 0.2
v -0.5 0.5 0.1
v -0.4 0.5 0.1
v -0.3 0.5 0.1
v -0.2 0.5 0.1
v -0.1 0.5 0.1
v 0 0.5 0.1
v -0.6 0.5 0
v -0.5 0.5 0
v -0.4 0.5 0
v -0.2 0.5 0
v -0.1 0.5 0
v 0 0.5 0
v 0.1 0.5 0
v -0.4 0.5 -0.1
v -0.3 0.5 -0.1
v 0 0.5 -0.1
v 0.1 0.5 -0.1
v -0.6 0.5 -0.2
v -0.5 0.5 -0.2
v -0.4 0.5 -0.2
v -0.3 0.5 -0.2
v 0 0.5 -0.2
v 0.1 0.5 -0.2
v -0.6 0.5 -0.3
v -0.5 0.5 -0.3
v -0.3 0.5 -0.3
v -0.1 0.5 -0.3
v 0 0.5 -0.3
v 0.1 0.5 -0.3
v -0.5 0.5 -0.4
v -0.4 0.5 -0.4
v -0.3 0.5 -0.4
v -0.2 0.5 -0.4
v -0.1 0.5 -0.4
v 0 0.5 -0.4
v -0.4 0.5 -0.5
v -0.3 0.5 -0.5
v -0.2 0.5 -0.5
v -0.1 0.5 -0.5
v 0.1 0.6 0.3
v 0.2 0.6 0.3
v 0.1 0.6 0.2
v 0.2 0.6 0.2
v -0.3 0.6 0.1
v -0.2 0.6 0.1
v -0.2 0.6 0
v -0.1 0.6 0
v -0.4 0.6 -0.1
v -0.3 0.6 -0.1
v -0.2 0.6 -0.1
v -0.4 0.6 -0.2
v -0.3 0.6 -0.2
v -0.2 0.6 -0.2
v -0.1 0.6 -0.2
v -0.3 0.6 -0.3
v -0.2 0.6 -0.3
v -0.1 0.6 -0.3
v 0 0.1 0.4
v 0.1 0.1 0.4
v 0 0.1 0.3
v 0.1 0.1 0.3
v 0.2 0.1 0.3
v 0.1 0.1 0.2
v 0.2 0.1 0.2
v 0.3 0.1 -0.1
v 0.4 0.1 -0.1
v -0.4 0.1 -0.2
v -0.3 0.1 -0.2
v 0.3 0.1 -0.2
v 0.4 0.1 -0.2
v -0.4 0.1 -0.3
v -0.3 0.1 -0.3
v -0.2 0.1 -0.3
v -0.3 0.1 -0.4
v -0.2 0.1 -0.4
v 0.1 0.3 0.4
v 0.2 0.3 0.4
v 0.1 0.3 0.3
v 0.2 0.3 0.3
v -0.2 0.3 -0.1
v -0.1 0.3 -0.1
v -0.2 0.3 -0.2
v -0.1 0.3 -0.2
v 0.4 0.4 0
v 0.5 0.4 0
v 0.3 0.4 -0.1
v 0.4 0.4 -0.1
v 0.5 0.4 -0.1
v 0.6 0.4 -0.1
v -0.3 0.4 -0.2
v -0.2 0.4 -0.2
v 0.3 0.4 -0.2
v 0.4 0.4 -0.2
v 0.5 0.4 -0.2
v 0.6 0.4 -0.2
v -0.3 0.4 -0.3
v -0.2 0.4 -0.3
v 0.4 0.4 -0.3
v 0.5 0.4 -0.3
v 0 0.5 0.7
v 0.2 0.5 0.7
v 0 0.5 0.6
v 0.2 0.5 0.6
v 0.4 0.5 -0.1
v 0.5 0.5 -0.1
v 0.4 0.5 -0.2
v 0.5 0.5 -0.2
v -0.1 0.6 0.6
v 0.3 0.6 0.6
v 0.3 0.6 0.5
v 0.4 0.6 0.5
v -0.1 0.6 0.4
v 0 0.6 0.4
v 0.1 0.6 0.4
v 0.3 0.6 0.4
v 0.4 0.6 0.4
v -0.4 0.6 0.2
v -0.2 0.6 0.2
v -0.1 0.6 0.2
v 0 0.6 0.2
v 0.1 0.6 0.2
v -0.5 0.6 0.1
v -0.4 0.6 0.1
v -0.3 0.6 0.1
v -0.2 0.6 0.1
v -0.1 0.6 0.1
v 0 0.6 0.1
v -0.6 0.6 0
v -0.5 0.6 0
v -0.4 0.6 0
v -0.3 0.6 0
v -0.2 0.6 0
v -0.1 0.6 0
v 0 0.6 0
v 0.1 0.6 0
v -0.4 0.6 -0.1
v 0 0.6 -0.1
v 0.1 0.6 -0.1
v -0.6 0.6 -0.2
v -0.5 0.6 -0.2
v -0.4 0.6 -0.2
v -0.1 0.6 -0.2
v 0 0.6 -0.2
v 0.1 0.6 -0.2
v -0.6 0.6 -0.3
v -0.5 0.6 -0.3
v -0.4 0.6 -0.3
v -0.3 0.6 -0.3
v -0.2 0.6 -0.3
v -0.1 0.6 -0.3
v 0 0.6 -0.3
v 0.1 0.6 -0.3
v -0.5 0.6 -0.4
v -0.4 0.6 -0.4
v -0.3 0.6 -0.4
v -0.2 0.6 -0.4
v -0.1 0.6 -0.4
v 0 0.6 -0.4
v -0.4 0.6 -0.5
v -0.3 0.6 -0.5
v -0.2 0.6 -0.5
v -0.1 0.6 -0.5
v 0.1 0.7 0.4
v 0.3 0.7 0.4
v 0.2 0.7 0.3
v 0.3 0.7 0.3
v 0.1 0.7 0.2
v 0.2 0.7 0.2
v -0.3 0.7 0.1
v -0.2 0.7 0.1
v -0.4 0.7 0
v -0.3 0.7 0
v -0.2 0.7 0
v -0.1 0.7 0
v -0.4 0.7 -0.1
v -0.3 0.7 -0.1
v -0.4 0.7 -0.2
v -0.3 0.7 -0.2
v -0.2 0.7 -0.2
v -0.1 0.7 -0.2
v -0.4 0.7 -0.3
v -0.3 0.7 -0.3
v -0.2 0.7 -0.3
v -0.1 0.7 -0.3
v -0.3 0.7 -0.4
v -0.2 0.7 -0.4

# faces
f 4/1/1 2/1/1 1/1/1
f 5/5/1 3/5/1 2/5/1
f 5/1/1 2/1/1 4/1/1
f 6/5/1 3/5/1 5/5/1
f 11/5/1 8/5/1 7/5/1
f 12/5/1 8/5/1 11/5/1
f 13/1/1 10/1/1 9/1/1
f 14/1/1 10/1/1 13/1/1
f 17/3/1 16/3/1 15/3/1
f 18/3/1 16/3/1 17/3/1
f 23/1/1 20/1/1 19/1/1
f 24/1/1 20/1/1 23/1/1
f 29/1/1 22/1/1 21/1/1
f 30/1/1 22/1/1 29/1/1
f 31/1/1 26/1/1 25/1/1
f 32/5/1 27/5/1 26/5/1
f 32/1/1 26/1/1 31/1/1
f 33/1/1 28/1/1 27/1/1
f 33/5/1 27/5/1 32/5/1
f 34/1/1 28/1/1 33/1/1
f 39/3/1 36/3/1 35/3/1
f 40/3/1 38/3/1 37/3/1
f 41/3/1 38/3/1 40/3/1
f 42/3/1 39/3/1 35/3/1
f 42/3/1 40/3/1 39/3/1
f 43/3/1 40/3/1 42/3/1
f 44/3/1 42/3/1 35/3/1
f 44/4/1 43/4/1 42/4/1
f 45/4/1 43/4/1 44/4/1
f 46/3/1 44/3/1 35/3/1
f 47/3/1 44/3/1 46/3/1
f 50/1/1 47/1/1 46/1/1
f 51/1/1 47/1/1 50/1/1
f 54/1/1 49/1/1 48/1/1
f 55/1/1 49/1/1 54/1/1
f 56/1/1 53/1/1 52/1/1
f 57/1/1 53/1/1 56/1/1
f 60/1/1 59/1/1 58/1/1
f 61/1/1 59/1/1 60/1/1
f 66/2/1 63/2/1 62/2/1
f 67/2/1 63/2/1 66/2/1
f 68/1/1 65/1/1 64/1/1
f 69/1/1 65/1/1 68/1/1
f 70/1/1 65/1/1 69/1/1
f 73/4/1 72/4/1 71/4/1
f 74/4/1 72/4/1 73/4/1
f 77/2/1 76/2/1 75/2/1
f 78/2/1 76/2/1 77/2/1
f 81/2/1 80/2/1 79/2/1
f 82/2/1 80/2/1 81/2/1
f 86/4/1 84/4/1 83/4/1
f 87/4/1 84/4/1 86/4/1
f 89/4/1 86/4/1 85/4/1
f 90/4/1 86/4/1 89/4/1
f 90/4/1 89/4/1 88/4/1
f 91/4/1 86/4/1 90/4/1
f 93/4/1 90/4/1 88/4/1
f 94/4/1 90/4/1 93/4/1
f 95/2/1 93/2/1 92/2/1
f 95/2/1 94/2/1 93/2/1
f 96/2/1 94/2/1 95/2/1
f 99/2/1 98/2/1 97/2/1
f 100/2/1 98/2/1 99/2/1
f 103/3/1 102/3/1 101/3/1
f 104/3/1 102/3/1 103/3/1
f 107/4/1 106/4/1 105/4/1
f 108/4/1 106/4/1 107/4/1
f 112/3/1 110/3/1 109/3/1
f 113/3/1 110/3/1 112/3/1
f 115/4/1 112/4/1 111/4/1
f 116/4/1 112/4/1 115/4/1
f 117/4/1 114/4/1 113/4/1
f 118/4/1 114/4/1 117/4/1
f 119/4/1 117/4/1 116/4/1
f 120/4/1 117/4/1 119/4/1
f 121/1/2 122/1/2 123/1/2
f 123/1/2 122/1/2 124/1/2
f 125/1/2 126/1/2 129/1/2
f 129/1/2 126/1/2 130/1/2
f 127/1/2 128/1/2 131/1/2
f 131/1/2 128/1/2 132/1/2
f 133/3/2 134/3/2 135/3/2
f 135/3/2 134/3/2 136/3/2
f 133/3/2 135/3/2 137/3/2
f 137/3/2 135/3/2 138/3/2
f 138/3/2 135/3/2 139/3/2
f 138/4/2 139/4/2 141/4/2
f 141/4/2 139/4/2 142/4/2
f 140/3/2 141/3/2 142/3/2
f 142/4/2 139/4/2 143/4/2
f 140/3/2 142/3/2 144/3/2
f 144/3/2 142/3/2 145/3/2
f 144/1/2 145/1/2 148/1/2
f 148/1/2 145/1/2 149/1/2
f 146/1/2 147/1/2 152/1/2
f 152/1/2 147/1/2 153/1/2
f 150/1/2 151/1/2 154/1/2
f 154/1/2 151/1/2 155/1/2
f 156/4/2 157/4/2 158/4/2
f 158/4/2 157/4/2 159/4/2
f 160/5/2 161/5/2 164/5/2
f 164/5/2 161/5/2 165/5/2
f 162/1/2 163/1/2 169/1/2
f 169/1/2 163/1/2 170/1/2
f 166/1/2 167/1/2 171/1/2
f 167/5/2 168/5/2 172/5/2
f 171/1/2 167/1/2 172/1/2
f 172/5/2 168/5/2 173/5/2
f 174/1/2 175/1/2 178/1/2
f 178/1/2 175/1/2 179/1/2
f 176/1/2 177/1/2 180/1/2
f 180/1/2 177/1/2 181/1/2
f 182/2/2 183/2/2 188/2/2
f 188/2/2 183/2/2 189/2/2
f 184/1/2 185/1/2 190/1/2
f 185/5/2 186/5/2 191/5/2
f 190/1/2 185/1/2 191/1/2
f 186/1/2 187/1/2 192/1/2
f 191/5/2 186/5/2 192/5/2
f 192/1/2 187/1/2 193/1/2
f 194/4/2 195/4/2 196/4/2
f 196/4/2 195/4/2 197/4/2
f 194/4/2 196/4/2 199/4/2
f 199/4/2 196/4/2 200/4/2
f 198/4/2 199/4/2 200/4/2
f 200/4/2 196/4/2 201/4/2
f 198/4/2 200/4/2 203/4/2
f 203/4/2 200/4/2 204/4/2
f 202/2/2 203/2/2 205/2/2
f 203/2/2 204/2/2 205/2/2
f 205/2/2 204/2/2 206/2/2
f 206/2/2 204/2/2 207/2/2
f 208/2/2 209/2/2 210/2/2
f 210/2/2 209/2/2 211/2/2
f 212/2/2 213/2/2 216/2/2
f 216/2/2 213/2/2 217/2/2
f 214/2/2 215/2/2 218/2/2
f 218/2/2 215/2/2 219/2/2
f 219/2/2 215/2/2 220/2/2
f 221/3/2 222/3/2 223/3/2
f 223/3/2 222/3/2 224/3/2
f 225/2/2 226/2/2 227/2/2
f 227/2/2 226/2/2 228/2/2
f 229/3/2 230/3/2 232/3/2
f 232/3/2 230/3/2 233/3/2
f 231/4/2 232/4/2 235/4/2
f 235/4/2 232/4/2 236/4/2
f 233/4/2 234/4/2 237/4/2
f 237/4/2 234/4/2 238/4/2
f 236/4/2 237/4/2 239/4/2
f 239/4/2 237/4/2 240/4/2
f 241/4/2 242/4/2 243/4/2
f 243/4/2 242/4/2 244/4/2
f 247/2/3 246/2/3 245/2/3
f 248/2/3 246/2/3 247/2/3
f 251/2/3 250/2/3 249/2/3
f 252/2/3 250/2/3 251/2/3
f 253/2/3 250/2/3 252/2/3
f 254/2/3 250/2/3 253/2/3
f 257/4/3 256/4/3 255/4/3
f 258/4/3 256/4/3 257/4/3
f 261/2/3 260/2/3 259/2/3
f 262/2/3 260/2/3 261/2/3
f 265/4/3 264/4/3 263/4/3
f 269/4/3 265/4/3 263/4/3
f 269/4/3 266/4/3 265/4/3
f 270/4/3 266/4/3 269/4/3
f 271/2/3 268/2/3 267/2/3
f 272/2/3 268/2/3 271/2/3
f 275/1/3 274/1/3 273/1/3
f 276/1/3 274/1/3 275/1/3
f 277/5/3 276/5/3 275/5/3
f 278/5/3 276/5/3 277/5/3
f 281/5/3 280/5/3 279/5/3
f 282/5/3 280/5/3 281/5/3
f 285/1/3 284/1/3 283/1/3
f 286/1/3 284/1/3 285/1/3
f 289/1/3 288/1/3 287/1/3
f 290/1/3 288/1/3 289/1/3
f 293/1/3 292/1/3 291/1/3
f 294/1/3 292/1/3 293/1/3
f 297/1/3 296/1/3 295/1/3
f 298/1/3 296/1/3 297/1/3
f 301/1/3 300/1/3 299/1/3
f 302/1/3 300/1/3 301/1/3
f 305/1/3 304/1/3 303/1/3
f 306/1/3 304/1/3 305/1/3
f 309/4/3 308/4/3 307/4/3
f 310/4/3 308/4/3 309/4/3
f 314/3/3 312/3/3 311/3/3
f 315/3/3 312/3/3 314/3/3
f 316/3/3 312/3/3 315/3/3
f 317/1/3 313/1/3 312/1/3
f 317/3/3 312/3/3 316/3/3
f 318/1/3 313/1/3 317/1/3
f 319/4/3 316/4/3 315/4/3
f 320/4/3 316/4/3 319/4/3
f 325/3/3 322/3/3 321/3/3
f 326/3/3 322/3/3 325/3/3
f 327/4/3 324/4/3 323/4/3
f 328/4/3 324/4/3 327/4/3
f 330/3/3 327/3/3 326/3/3
f 331/3/3 327/3/3 330/3/3
f 332/4/3 329/4/3 328/4/3
f 333/4/3 329/4/3 332/4/3
f 334/4/3 332/4/3 331/4/3
f 335/4/3 332/4/3 334/4/3
f 340/3/3 337/3/3 336/3/3
f 341/3/3 337/3/3 340/3/3
f 342/1/3 339/1/3 338/1/3
f 343/1/3 339/1/3 342/1/3
f 346/1/3 345/1/3 344/1/3
f 347/1/3 346/1/3 344/1/3
f 348/1/3 346/1/3 347/1/3
f 349/2/4 350/2/4 351/2/4
f 351/2/4 350/2/4 352/2/4
f 353/2/4 354/2/4 355/2/4
f 355/2/4 354/2/4 356/2/4
f 357/4/4 358/4/4 360/4/4
f 358/2/4 359/2/4 361/2/4
f 360/4/4 358/4/4 361/4/4
f 361/2/4 359/2/4 362/2/4
f 363/2/4 364/2/4 365/2/4
f 365/2/4 364/2/4 366/2/4
f 367/4/4 368/4/4 369/4/4
f 369/4/4 368/4/4 370/4/4
f 370/4/4 371/4/4 374/4/4
f 374/4/4 371/4/4 375/4/4
f 372/2/4 373/2/4 376/2/4
f 376/2/4 377/2/4 378/2/4
f 372/2/4 376/2/4 378/2/4
f 378/2/4 377/2/4 379/2/4
f 380/2/4 381/2/4 384/2/4
f 384/2/4 381/2/4 385/2/4
f 382/4/4 383/4/4 387/4/4
f 387/4/4 383/4/4 388/4/4
f 385/2/4 386/2/4 389/2/4
f 389/2/4 386/2/4 390/2/4
f 391/1/4 392/1/4 393/1/4
f 393/1/4 392/1/4 394/1/4
f 395/1/4 396/1/4 397/1/4
f 397/1/4 396/1/4 398/1/4
f 399/1/4 400/1/4 401/1/4
f 401/1/4 400/1/4 402/1/4
f 403/3/4 404/3/4 408/3/4
f 404/1/4 405/1/4 409/1/4
f 408/3/4 404/3/4 409/3/4
f 409/1/4 405/1/4 410/1/4
f 406/4/4 407/4/4 411/4/4
f 411/4/4 407/4/4 412/4/4
f 413/3/4 414/3/4 417/3/4
f 417/3/4 414/3/4 418/3/4
f 415/4/4 416/4/4 419/4/4
f 419/4/4 416/4/4 420/4/4
f 418/3/4 419/3/4 422/3/4
f 422/3/4 419/3/4 423/3/4
f 420/4/4 421/4/4 424/4/4
f 424/4/4 421/4/4 425/4/4
f 423/4/4 424/4/4 426/4/4
f 426/4/4 424/4/4 427/4/4
f 428/5/4 429/5/4 430/5/4
f 430/5/4 429/5/4 431/5/4
f 432/3/4 433/3/4 436/3/4
f 436/3/4 433/3/4 437/3/4
f 434/1/4 435/1/4 440/1/4
f 440/1/4 435/1/4 441/1/4
f 437/3/4 438/3/4 442/3/4
f 438/4/4 439/4/4 443/4/4
f 442/3/4 438/3/4 443/3/4
f 443/4/4 439/4/4 444/4/4
f 445/5/4 446/5/4 447/5/4
f 447/5/4 446/5/4 448/5/4
f 449/1/4 450/1/4 451/1/4
f 451/1/4 450/1/4 452/1/4
f 453/4/4 454/4/4 455/4/4
f 455/4/4 454/4/4 456/4/4
f 457/1/4 458/1/4 459/1/4
f 459/1/4 458/1/4 460/1/4
f 461/3/4 462/3/4 465/3/4
f 465/3/4 462/3/4 466/3/4
f 463/1/4 464/1/4 467/1/4
f 467/1/4 464/1/4 468/1/4
f 469/1/4 470/1/4 471/1/4
f 471/1/4 470/1/4 472/1/4
f 473/1/4 474/1/4 475/1/4
f 475/1/4 474/1/4 476/1/4
f 475/5/4 476/5/4 477/5/4
f 477/5/4 476/5/4 478/5/4
f 477/1/4 478/1/4 479/1/4
f 479/1/4 478/1/4 480/1/4
f 483/4/5 482/4/5 481/4/5
f 484/4/5 482/4/5 483/4/5
f 485/4/5 482/4/5 484/4/5
f 486/4/5 482/4/5 485/4/5
f 492/3/5 488/3/5 487/3/5
f 493/3/5 490/3/5 489/3/5
f 494/3/5 490/3/5 493/3/5
f 495/3/5 492/3/5 491/3/5
f 496/3/5 488/3/5 492/3/5
f 496/3/5 492/3/5 495/3/5
f 497/3/5 488/3/5 496/3/5
f 498/3/5 488/3/5 497/3/5
f 501/3/5 500/3/5 499/3/5
f 502/3/5 500/3/5 501/3/5
f 505/4/5 504/4/5 503/4/5
f 506/4/5 504/4/5 505/4/5
f 509/4/5 508/4/5 507/4/5
f 510/4/5 508/4/5 509/4/5
f 514/4/5 512/4/5 511/4/5
f 515/4/5 512/4/5 514/4/5
f 517/4/5 514/4/5 513/4/5
f 518/4/5 514/4/5 517/4/5
f 519/4/5 516/4/5 515/4/5
f 520/4/5 516/4/5 519/4/5
f 521/4/5 519/4/5 518/4/5
f 522/4/5 519/4/5 521/4/5
f 525/2/5 524/2/5 523/2/5
f 526/2/5 524/2/5 525/2/5
f 527/2/5 524/2/5 526/2/5
f 528/2/5 524/2/5 527/2/5
f 534/2/5 533/2/5 532/2/5
f 536/2/5 530/2/5 529/2/5
f 536/2/5 531/2/5 530/2/5
f 537/2/5 531/2/5 536/2/5
f 538/2/5 531/2/5 537/2/5
f 539/2/5 535/2/5 534/2/5
f 539/2/5 534/2/5 532/2/5
f 540/2/5 535/2/5 539/2/5
f 541/2/5 535/2/5 540/2/5
f 542/2/5 538/2/5 537/2/5
f 542/2/5 540/2/5 539/2/5
f 542/2/5 539/2/5 538/2/5
f 543/2/5 540/2/5 542/2/5
f 547/2/5 542/2/5 537/2/5
f 548/2/5 542/2/5 547/2/5
f 550/1/5 545/1/5 544/1/5
f 551/1/5 545/1/5 550/1/5
f 552/5/5 546/5/5 545/5/5
f 552/1/5 545/1/5 551/1/5
f 553/5/5 546/5/5 552/5/5
f 556/5/5 550/5/5 549/5/5
f 557/1/5 551/1/5 550/1/5
f 557/5/5 550/5/5 556/5/5
f 558/1/5 553/1/5 552/1/5
f 558/1/5 554/1/5 553/1/5
f 559/1/5 554/1/5 558/1/5
f 560/1/5 554/1/5 559/1/5
f 562/1/5 556/1/5 555/1/5
f 562/1/5 551/1/5 557/1/5
f 562/1/5 557/1/5 556/1/5
f 563/1/5 551/1/5 562/1/5
f 564/1/5 561/1/5 560/1/5
f 564/1/5 560/1/5 559/1/5
f 565/1/5 561/1/5 564/1/5
f 566/1/5 562/1/5 555/1/5
f 567/1/5 562/1/5 566/1/5
f 568/1/5 562/1/5 567/1/5
f 570/5/5 565/5/5 564/5/5
f 570/1/5 564/1/5 559/1/5
f 571/5/5 565/5/5 570/5/5
f 572/5/5 567/5/5 566/5/5
f 573/1/5 569/1/5 568/1/5
f 573/5/5 567/5/5 572/5/5
f 573/1/5 568/1/5 567/1/5
f 574/1/5 569/1/5 573/1/5
f 575/1/5 571/1/5 570/1/5
f 575/1/5 570/1/5 559/1/5
f 576/1/5 571/1/5 575/1/5
f 577/1/5 571/1/5 576/1/5
f 578/1/5 574/1/5 573/1/5
f 578/1/5 576/1/5 575/1/5
f 578/1/5 575/1/5 574/1/5
f 579/1/5 576/1/5 578/1/5
f 580/1/5 576/1/5 579/1/5
f 581/1/5 576/1/5 580/1/5
f 582/1/5 576/1/5 581/1/5
f 583/1/5 576/1/5 582/1/5
f 584/1/5 580/1/5 579/1/5
f 585/5/5 581/5/5 580/5/5
f 585/1/5 580/1/5 584/1/5
f 586/1/5 582/1/5 581/1/5
f 586/5/5 581/5/5 585/5/5
f 587/1/5 582/1/5 586/1/5
f 590/2/5 589/2/5 588/2/5
f 591/2/5 589/2/5 590/2/5
f 594/1/5 593/1/5 592/1/5
f 597/1/5 594/1/5 592/1/5
f 597/1/5 595/1/5 594/1/5
f 598/1/5 595/1/5 597/1/5
f 599/5/5 597/5/5 596/5/5
f 600/5/5 597/5/5 599/5/5
f 601/1/5 595/1/5 598/1/5
f 602/1/5 595/1/5 601/1/5
f 603/1/5 601/1/5 600/1/5
f 604/5/5 602/5/5 601/5/5
f 604/1/5 601/1/5 603/1/5
f 605/5/5 602/5/5 604/5/5
f 606/4/6 607/4/6 608/4/6
f 608/4/6 607/4/6 609/4/6
f 609/4/6 610/4/6 611/4/6
f 611/4/6 610/4/6 612/4/6
f 613/3/6 614/3/6 617/3/6
f 617/3/6 614/3/6 618/3/6
f 615/3/6 616/3/6 619/3/6
f 619/3/6 616/3/6 620/3/6
f 620/3/6 621/3/6 622/3/6
f 622/3/6 621/3/6 623/3/6
f 624/4/6 625/4/6 626/4/6
f 626/4/6 625/4/6 627/4/6
f 628/4/6 629/4/6 630/4/6
f 630/4/6 629/4/6 631/4/6
f 632/4/6 633/4/6 635/4/6
f 635/4/6 633/4/6 636/4/6
f 634/4/6 635/4/6 640/4/6
f 640/4/6 635/4/6 641/4/6
f 636/4/6 637/4/6 642/4/6
f 642/4/6 637/4/6 643/4/6
f 638/4/6 639/4/6 644/4/6
f 644/4/6 639/4/6 645/4/6
f 641/4/6 642/4/6 646/4/6
f 646/4/6 642/4/6 647/4/6
f 648/2/6 649/2/6 650/2/6
f 650/2/6 649/2/6 651/2/6
f 652/4/6 653/4/6 654/4/6
f 654/4/6 653/4/6 655/4/6
f 656/2/6 657/2/6 658/2/6
f 656/2/6 658/2/6 660/2/6
f 658/2/6 659/2/6 660/2/6
f 660/2/6 659/2/6 661/2/6
f 661/2/6 659/2/6 662/2/6
f 662/2/6 659/2/6 663/2/6
f 663/2/6 659/2/6 664/2/6
f 661/2/6 662/2/6 668/2/6
f 668/2/6 662/2/6 669/2/6
f 665/1/6 666/1/6 671/1/6
f 671/1/6 666/1/6 672/1/6
f 666/5/6 667/5/6 673/5/6
f 672/1/6 666/1/6 673/1/6
f 673/5/6 667/5/6 674/5/6
f 670/5/6 671/5/6 677/5/6
f 671/1/6 672/1/6 678/1/6
f 677/5/6 671/5/6 678/5/6
f 678/1/6 672/1/6 679/1/6
f 673/1/6 674/1/6 680/1/6
f 674/1/6 675/1/6 680/1/6
f 680/1/6 675/1/6 681/1/6
f 681/1/6 675/1/6 682/1/6
f 676/1/6 677/1/6 684/1/6
f 677/1/6 678/1/6 684/1/6
f 682/1/6 683/1/6 685/1/6
f 681/1/6 682/1/6 685/1/6
f 685/1/6 683/1/6 686/1/6
f 676/1/6 684/1/6 687/1/6
f 687/1/6 684/1/6 688/1/6
f 688/1/6 684/1/6 689/1/6
f 681/1/6 685/1/6 690/1/6
f 685/5/6 686/5/6 691/5/6
f 690/1/6 685/1/6 691/1/6
f 691/5/6 686/5/6 692/5/6
f 687/5/6 688/5/6 693/5/6
f 688/1/6 689/1/6 694/1/6
f 693/5/6 688/5/6 694/5/6
f 694/1/6 689/1/6 695/1/6
f 690/1/6 691/1/6 698/1/6
f 691/1/6 692/1/6 698/1/6
f 698/1/6 692/1/6 699/1/6
f 699/1/6 692/1/6 700/1/6
f 695/1/6 696/1/6 701/1/6
f 694/1/6 695/1/6 701/1/6
f 701/1/6 696/1/6 702/1/6
f 702/1/6 696/1/6 703/1/6
f 698/1/6 699/1/6 704/1/6
f 697/1/6 698/1/6 704/1/6
f 704/1/6 699/1/6 705/1/6
f 705/1/6 699/1/6 706/1/6
f 702/1/6 703/1/6 707/1/6
f 703/5/6 704/5/6 708/5/6
f 707/1/6 703/1/6 708/1/6
f 704/1/6 705/1/6 709/1/6
f 708/5/6 704/5/6 709/5/6
f 709/1/6 705/1/6 710/1/6
f 711/2/6 712/2/6 713/2/6
f 713/2/6 712/2/6 714/2/6
f 711/2/6 713/2/6 715/2/6
f 715/2/6 713/2/6 716/2/6
f 717/1/6 718/1/6 720/1/6
f 720/1/6 718/1/6 721/1/6
f 719/1/6 720/1/6 723/1/6
f 721/1/6 722/1/6 723/1/6
f 720/1/6 721/1/6 723/1/6
f 723/1/6 722/1/6 724/1/6
f 723/5/6 724/5/6 725/5/6
f 724/1/6 722/1/6 726/1/6
f 725/5/6 724/5/6 726/5/6
f 726/1/6 722/1/6 727/1/6
f 727/1/6 722/1/6 728/1/6
f 725/1/6 726/1/6 729/1/6
f 726/1/6 727/1/6 729/1/6
f 729/1/6 727/1/6 730/1/6
f 727/5/6 728/5/6 731/5/6
f 730/1/6 727/1/6 731/1/6
f 731/5/6 728/5/6 732/5/6
f 730/1/6 731/1/6 733/1/6
f 733/1/6 731/1/6 734/1/6
