<?xml version="1.0" encoding="UTF-8" standalone="no"?>
<!-- Created with Inkscape (http://www.inkscape.org/) -->

<svg
   width="80mm"
   height="80mm"
   viewBox="0 0 80 80"
   version="1.1"
   id="svg1089"
   inkscape:version="1.2-dev (42c0364, 2021-07-08)"
   sodipodi:docname="connection.svg"
   inkscape:export-filename="C:\NewProjects\pocket-merchant\res\img\icons\inline\connection.png"
   inkscape:export-xdpi="25.4"
   inkscape:export-ydpi="25.4"
   xmlns:inkscape="http://www.inkscape.org/namespaces/inkscape"
   xmlns:sodipodi="http://sodipodi.sourceforge.net/DTD/sodipodi-0.dtd"
   xmlns:xlink="http://www.w3.org/1999/xlink"
   xmlns="http://www.w3.org/2000/svg"
   xmlns:svg="http://www.w3.org/2000/svg">
  <sodipodi:namedview
     id="namedview1091"
     pagecolor="#ffffff"
     bordercolor="#666666"
     borderopacity="1.0"
     inkscape:pageshadow="2"
     inkscape:pageopacity="0.0"
     inkscape:pagecheckerboard="0"
     inkscape:document-units="mm"
     showgrid="false"
     inkscape:zoom="1.7587595"
     inkscape:cx="128.49966"
     inkscape:cy="123.38242"
     inkscape:window-width="1920"
     inkscape:window-height="1001"
     inkscape:window-x="-9"
     inkscape:window-y="-9"
     inkscape:window-maximized="1"
     inkscape:current-layer="layer1"
     width="80mm"
     borderlayer="true" />
  <defs
     id="defs1086">
    <linearGradient
       inkscape:collect="always"
       id="linearGradient945">
      <stop
         style="stop-color:#40c3f1;stop-opacity:1;"
         offset="0"
         id="stop941" />
      <stop
         style="stop-color:#3d4466;stop-opacity:1;"
         offset="1"
         id="stop943" />
    </linearGradient>
    <clipPath
       clipPathUnits="userSpaceOnUse"
       id="clipPath828">
      <path
         style="fill:#000000;stroke-width:0.999998"
         d="m 73.067254,185.20137 c -0.351364,-0.62653 -1.806996,-1.25249 -1.463074,-1.87937 3.042777,-3.04905 6.085554,-6.09811 9.128331,-9.14716 -2.106107,-2.11591 -4.212212,-4.23181 -6.318316,-6.34772 1.279853,-1.29595 2.559706,-2.59191 3.839559,-3.88786 1.422739,1.41009 2.845472,2.82018 4.268205,4.23027 1.347238,-1.34725 2.694477,-2.69449 4.04172,-4.04173 2.703788,2.69611 5.407573,5.39223 8.111355,8.08835 -1.343464,1.35763 -2.686931,2.71526 -4.030401,4.07289 1.345557,1.35975 2.691117,2.7195 4.036682,4.07925 -1.295834,1.27974 -2.591668,2.55948 -3.887504,3.83921 -2.177661,-2.1686 -4.35532,-4.3372 -6.532978,-6.50581 -3.103872,3.06476 -6.101519,6.24386 -9.336447,9.17069 -0.68842,-0.46703 -1.254887,-1.10165 -1.857132,-1.67101 z m 40.133836,-3.26711 c -1.52506,-1.52845 -3.05011,-3.05689 -4.57517,-4.58534 -2.12681,2.11797 -4.25362,4.23594 -6.38043,6.3539 -1.27925,-1.29533 -2.558491,-2.59066 -3.83773,-3.886 1.280916,-1.29703 2.56184,-2.59406 3.84276,-3.89109 -9.782733,-9.81547 -19.565469,-19.63094 -29.348207,-29.44641 -0.906698,-3.70063 -2.020885,-7.3609 -2.687402,-11.1125 3.677729,1.02317 7.319041,2.173 10.976591,3.26579 9.725181,9.7273 19.450368,19.4546 29.175548,29.1819 1.42199,-1.40934 2.84397,-2.81868 4.26595,-4.22803 1.27985,1.29595 2.55971,2.59191 3.83956,3.88786 -2.1061,2.11591 -4.2122,4.23182 -6.31831,6.34772 3.11498,3.12141 6.22996,6.24281 9.34494,9.36422 -1.17541,1.11975 -2.26603,2.34162 -3.55358,3.33332 -1.6555,-1.44794 -3.17711,-3.0435 -4.74452,-4.58534 z m -10.50192,-25.67111 c -1.68728,-1.91177 -5.546535,-4.22666 -1.89513,-6.27502 3.59455,-3.73818 7.31697,-7.3501 10.98517,-11.01539 3.65671,-1.05668 7.28518,-2.22116 10.97656,-3.15027 -0.84902,3.7658 -1.92464,7.47719 -2.89671,11.21293 -4.39173,4.34896 -8.67307,8.81595 -13.19757,13.02587 -1.40194,-1.1783 -2.66347,-2.51911 -3.97232,-3.79812 z"
         id="path830" />
    </clipPath>
    <clipPath
       clipPathUnits="userSpaceOnUse"
       id="clipPath832">
      <path
         style="fill:#000000;stroke-width:0.999998"
         d="m 73.067254,185.20137 c -0.351364,-0.62653 -1.806996,-1.25249 -1.463074,-1.87937 3.042777,-3.04905 6.085554,-6.09811 9.128331,-9.14716 -2.106107,-2.11591 -4.212212,-4.23181 -6.318316,-6.34772 1.279853,-1.29595 2.559706,-2.59191 3.839559,-3.88786 1.422739,1.41009 2.845472,2.82018 4.268205,4.23027 1.347238,-1.34725 2.694477,-2.69449 4.04172,-4.04173 2.703788,2.69611 5.407573,5.39223 8.111355,8.08835 -1.343464,1.35763 -2.686931,2.71526 -4.030401,4.07289 1.345557,1.35975 2.691117,2.7195 4.036682,4.07925 -1.295834,1.27974 -2.591668,2.55948 -3.887504,3.83921 -2.177661,-2.1686 -4.35532,-4.3372 -6.532978,-6.50581 -3.103872,3.06476 -6.101519,6.24386 -9.336447,9.17069 -0.68842,-0.46703 -1.254887,-1.10165 -1.857132,-1.67101 z m 40.133836,-3.26711 c -1.52506,-1.52845 -3.05011,-3.05689 -4.57517,-4.58534 -2.12681,2.11797 -4.25362,4.23594 -6.38043,6.3539 -1.27925,-1.29533 -2.558491,-2.59066 -3.83773,-3.886 1.280916,-1.29703 2.56184,-2.59406 3.84276,-3.89109 -9.782733,-9.81547 -19.565469,-19.63094 -29.348207,-29.44641 -0.906698,-3.70063 -2.020885,-7.3609 -2.687402,-11.1125 3.677729,1.02317 7.319041,2.173 10.976591,3.26579 9.725181,9.7273 19.450368,19.4546 29.175548,29.1819 1.42199,-1.40934 2.84397,-2.81868 4.26595,-4.22803 1.27985,1.29595 2.55971,2.59191 3.83956,3.88786 -2.1061,2.11591 -4.2122,4.23182 -6.31831,6.34772 3.11498,3.12141 6.22996,6.24281 9.34494,9.36422 -1.17541,1.11975 -2.26603,2.34162 -3.55358,3.33332 -1.6555,-1.44794 -3.17711,-3.0435 -4.74452,-4.58534 z m -10.50192,-25.67111 c -1.68728,-1.91177 -5.546535,-4.22666 -1.89513,-6.27502 3.59455,-3.73818 7.31697,-7.3501 10.98517,-11.01539 3.65671,-1.05668 7.28518,-2.22116 10.97656,-3.15027 -0.84902,3.7658 -1.92464,7.47719 -2.89671,11.21293 -4.39173,4.34896 -8.67307,8.81595 -13.19757,13.02587 -1.40194,-1.1783 -2.66347,-2.51911 -3.97232,-3.79812 z"
         id="path834" />
    </clipPath>
    <clipPath
       clipPathUnits="userSpaceOnUse"
       id="clipPath1737">
      <path
         style="fill:#000000;stroke-width:0.999998"
         d="M 27.563011,64.629681 C 24.213039,64.191602 20.938368,63.078106 19.279948,61.813167 17.7347,60.634549 17.386052,59.772404 17.38494,57.127159 l -9.79e-4,-2.354234 0.595313,0.862835 c 1.41954,2.057456 5.691045,3.687956 11.130777,4.248791 7.340111,0.756769 15.845234,-1.405774 17.496975,-4.448842 0.366848,-0.675854 0.389686,-0.579191 0.399674,1.69145 0.01249,2.839582 -0.398965,3.68196 -2.458386,5.033089 -3.344328,2.194118 -10.800787,3.278185 -16.985292,2.469433 z m 0.933439,-7.31556 c -4.830479,-0.512278 -9.372339,-2.390193 -10.582905,-4.3757 -0.424837,-0.696794 -0.52694,-1.329227 -0.524147,-3.246615 l 0.0035,-2.38125 0.543736,0.848908 c 1.039671,1.623189 4.242119,3.147679 8.209611,3.908091 3.211734,0.615564 9.427643,0.563835 12.619145,-0.105016 3.688834,-0.77308 6.695133,-2.296744 7.78138,-3.943794 0.464063,-0.703649 0.467069,-0.692745 0.468802,1.70008 0.0016,2.07082 -0.08291,2.53424 -0.602438,3.307292 -0.72903,1.084797 -2.866326,2.410431 -5.059608,3.138172 -3.172365,1.0526 -8.923761,1.566961 -12.857044,1.149832 z m 21.166667,-2.172258 v -2.355146 l 3.108854,-0.169715 c 6.904845,-0.376941 11.960262,-2.08389 13.618517,-4.598257 0.464238,-0.703911 0.467064,-0.693806 0.467813,1.673061 7.93e-4,2.841998 -0.400146,3.69702 -2.298891,4.901168 -2.735826,1.735011 -7.608223,2.880545 -12.316603,2.895722 l -2.57969,0.0083 z M 27.834992,49.805619 c -7.539688,-1.0356 -11.742726,-4.124539 -10.054444,-7.38932 1.619313,-3.131402 9.854993,-5.26864 17.393298,-4.513723 13.691129,1.371089 16.190666,8.676968 3.905938,11.416641 -2.671469,0.595776 -8.585904,0.851609 -11.244792,0.486402 z m 21.828125,-2.15351 v -2.518611 l 3.902604,-0.143134 c 5.926566,-0.217363 10.144213,-1.525484 12.236313,-3.795146 l 1.059,-1.14888 v 2.256185 c 0,2.560809 -0.326237,3.433886 -1.664531,4.454654 -2.408526,1.837071 -6.594837,2.963781 -12.027657,3.237146 l -3.505729,0.176395 z m -0.654164,-6.109642 c -0.648943,-1.367549 -2.803522,-3.272504 -4.710705,-4.164933 -1.701101,-0.795999 -5.363003,-1.840936 -6.451412,-1.840936 -0.574548,0 -0.619135,-0.105458 -0.619135,-1.464416 v -1.464416 l 0.830037,0.945361 c 2.24582,2.557849 7.417512,4.097555 13.769046,4.099293 7.064497,0.0019 12.580282,-1.706496 14.431894,-4.470056 l 0.602356,-0.899022 -0.0011,2.354231 c -0.0011,2.81224 -0.407829,3.673768 -2.300635,4.874151 -2.690616,1.706338 -6.376955,2.603982 -11.624537,2.830634 l -3.47512,0.150096 -0.450799,-0.949987 z M 48.869367,35.01495 C 43.355649,34.452078 39.069111,32.765058 37.756613,30.641393 37.334695,29.958715 37.2277,29.323437 37.2277,27.500958 v -2.284636 l 0.958702,1.061167 c 1.183363,1.309843 3.524589,2.452554 6.612393,3.227397 2.009153,0.504169 3.062118,0.589897 7.245572,0.589897 4.183454,0 5.236419,-0.08573 7.245572,-0.589897 3.087804,-0.774843 5.429031,-1.917554 6.612396,-3.227397 l 0.958699,-1.061167 v 2.284636 c 0,2.670101 -0.407395,3.565798 -2.144808,4.715563 -3.220543,2.131256 -10.239909,3.370821 -15.846859,2.798429 z M 47.149575,27.409386 C 45.310832,27.153579 42.074661,26.192871 40.679711,25.488704 38.698408,24.488544 37.2277,22.867719 37.2277,21.684337 c 0,-6.105573 18.650509,-8.543132 27.013059,-3.530516 3.848936,2.3071 3.345529,5.367967 -1.231905,7.490343 -2.917523,1.352742 -6.463448,1.96248 -11.138339,1.915291 -2.159955,-0.0218 -4.284377,-0.08933 -4.72094,-0.150069 z"
         id="path1739" />
    </clipPath>
    <linearGradient
       inkscape:collect="always"
       xlink:href="#linearGradient945"
       id="linearGradient947"
       x1="40.317242"
       y1="3.4600618"
       x2="40.016369"
       y2="76.271797"
       gradientUnits="userSpaceOnUse" />
    <clipPath
       clipPathUnits="userSpaceOnUse"
       id="clipPath858">
      <path
         style="fill:#000000;stroke-width:0.999998"
         d="M 19.900608,78.529386 C 19.066021,78.163097 14.163462,72.815752 11.460345,69.323379 8.7176398,65.779862 6.0956859,61.740883 4.6117039,58.773425 3.304172,56.158802 2.0977629,52.745849 1.5503079,50.112681 1.2322499,48.582868 1.1852029,44.863565 1.4629879,43.209157 2.802223,35.232951 8.6581149,29.150384 16.643988,27.440509 c 0.966922,-0.207029 1.94752,-0.275669 3.938243,-0.275669 1.990723,0 2.971321,0.06864 3.938243,0.275669 6.099398,1.305954 10.959796,5.101124 13.551866,10.58177 1.989061,4.205652 2.377882,8.819438 1.151081,13.6589 -1.63739,6.459154 -6.106001,13.998149 -12.750919,21.512083 -0.948653,1.072713 -1.7881,2.036831 -1.865441,2.142487 -0.09786,0.133676 -0.0057,0.308134 0.302942,0.573633 0.369909,0.318182 0.443561,0.496324 0.443561,1.072827 0,0.546727 -0.08437,0.775658 -0.40343,1.094724 -0.344259,0.344257 -0.588645,0.421124 -1.66618,0.52406 -1.841314,0.175895 -2.868968,0.154149 -3.383342,-0.0716 z m 3.168777,-22.756751 c 4.114896,-1.049211 7.216091,-5.063332 7.204351,-9.325158 -0.01209,-4.389056 -3.196849,-8.436147 -7.419446,-9.428398 -0.541508,-0.127246 -1.563937,-0.231359 -2.272063,-0.231359 -2.705208,0 -4.814138,0.872196 -6.756682,2.794378 -0.973984,0.963774 -1.358362,1.481442 -1.858247,2.502625 -1.393048,2.845768 -1.420396,5.805329 -0.07913,8.562922 2.027658,4.168786 6.640026,6.282896 11.181214,5.12499 z m 7.239078,21.423646 c -0.557927,-0.149474 -1.091261,-0.875247 -1.091261,-1.485017 0,-0.776316 0.506066,-1.299371 1.689523,-1.746231 1.569009,-0.592442 2.880985,-1.271916 4.350348,-2.253046 0.736312,-0.491654 1.436238,-0.847553 1.666179,-0.847225 1.103551,0.0016 1.889644,1.183195 1.464332,2.201113 -0.6027,1.442461 -6.623257,4.520436 -8.079121,4.130406 z m 10.765374,-8.40807 c -0.184602,-0.03538 -0.50837,-0.269605 -0.719489,-0.520499 -0.585145,-0.695407 -0.510167,-1.307187 0.357698,-2.918587 0.407847,-0.757269 1.094695,-2.228879 1.526326,-3.270242 0.865491,-2.088094 1.365885,-2.726478 2.137135,-2.726478 0.920501,0 1.644864,0.652169 1.650462,1.485966 0.0041,0.615733 -1.091485,3.329953 -2.230059,5.524603 -0.838626,1.616485 -1.412806,2.380628 -1.788819,2.380628 -0.106788,0 -0.284937,0.0245 -0.395888,0.05447 -0.11095,0.02996 -0.352766,0.02553 -0.537366,-0.0099 z m 5.07432,-13.063225 c -0.226227,-0.17853 -0.480764,-0.576088 -0.565635,-0.88346 -0.134699,-0.487849 -0.09809,-0.678981 0.288148,-1.504354 1.086133,-2.321018 2.828922,-4.417947 4.43947,-5.341597 1.051544,-0.603059 1.524122,-0.590637 2.171859,0.0571 0.423785,0.423789 0.515,0.628785 0.515,1.157436 0,0.55272 -0.07738,0.708189 -0.554143,1.113311 -1.602851,1.362009 -2.740313,2.655909 -3.437755,3.910563 -0.403294,0.725498 -0.828892,1.398455 -0.945772,1.495456 -0.116877,0.097 -0.502158,0.208717 -0.856175,0.248256 -0.501849,0.05605 -0.734296,2.65e-4 -1.054997,-0.252711 z M 57.29378,49.250431 c -0.777491,-0.658853 -0.879131,-1.620346 -0.244933,-2.317041 0.355605,-0.390647 0.609452,-0.490657 1.735154,-0.683604 2.047676,-0.350975 2.916819,-0.738831 3.91074,-1.745176 0.979519,-0.991764 1.5456,-1.203246 2.248209,-0.839914 0.850284,0.439697 1.129607,1.205227 0.777595,2.131094 -0.08331,0.219133 -0.515411,0.762354 -0.96021,1.207156 -1.369365,1.369364 -3.605887,2.290146 -5.931707,2.442096 -1.023456,0.06687 -1.261973,0.03662 -1.534848,-0.194611 z m 7.87968,-9.427697 c -0.17594,-0.07497 -0.465627,-0.32158 -0.643752,-0.548029 -0.28466,-0.361889 -0.323863,-0.606441 -0.323863,-2.020393 V 35.64564 L 62.944613,33.90451 C 57.22253,26.005176 53.550561,19.078293 53.023169,15.18847 c -0.152259,-1.122998 -0.02871,-3.003936 0.273709,-4.166853 1.196401,-4.6006965 4.419886,-7.9243246 9.044744,-9.3257411 1.151628,-0.3489635 1.613731,-0.405482 3.378933,-0.4132666 1.534256,-0.00677 2.30858,0.061157 3.10101,0.2720182 5.546878,1.4759949 9.401503,6.0056169 9.867696,11.5956685 0.113345,1.359119 -0.08781,2.740868 -0.651031,4.471877 -1.289783,3.964073 -4.766628,9.991352 -9.621401,16.67917 l -1.002202,1.380606 -0.05181,1.683615 c -0.04829,1.569141 -0.07811,1.709886 -0.438629,2.070053 -0.421341,0.420928 -1.244301,0.6029 -1.750721,0.387117 z m 1.555134,-22.653486 c 2.617327,-0.777264 3.114162,-4.250282 0.824762,-5.765335 -1.806639,-1.195577 -4.281639,-0.175651 -4.85225,1.999568 -0.492085,1.875878 0.981703,3.762397 3.105561,3.975265 0.08902,0.0089 0.50388,-0.08535 0.921927,-0.209498 z"
         id="path860" />
    </clipPath>
  </defs>
  <g
     inkscape:label="Ebene 1"
     inkscape:groupmode="layer"
     id="layer1">
    <rect
       style="fill:url(#linearGradient947);stroke-width:1.619;stroke-linecap:round;stroke-linejoin:round;stroke-opacity:0.993651;paint-order:markers fill stroke;fill-opacity:1"
       id="rect879"
       width="83.492798"
       height="83.342361"
       x="-1.8052497"
       y="-1.6548122"
       clip-path="url(#clipPath858)" />
  </g>
</svg>
