<?xml version="1.0" encoding="UTF-8" standalone="no"?>
<!-- Created with Inkscape (http://www.inkscape.org/) -->

<svg
   width="80mm"
   height="80mm"
   viewBox="0 0 80 80"
   version="1.1"
   id="svg1089"
   inkscape:version="1.2-dev (42c0364, 2021-07-08)"
   sodipodi:docname="empire.svg"
   inkscape:export-filename="C:\NewProjects\pocket-merchant\res\img\icons\inline\might.png"
   inkscape:export-xdpi="25.4"
   inkscape:export-ydpi="25.4"
   xmlns:inkscape="http://www.inkscape.org/namespaces/inkscape"
   xmlns:sodipodi="http://sodipodi.sourceforge.net/DTD/sodipodi-0.dtd"
   xmlns="http://www.w3.org/2000/svg"
   xmlns:svg="http://www.w3.org/2000/svg">
  <sodipodi:namedview
     id="namedview1091"
     pagecolor="#ffffff"
     bordercolor="#666666"
     borderopacity="1.0"
     inkscape:pageshadow="2"
     inkscape:pageopacity="0.0"
     inkscape:pagecheckerboard="0"
     inkscape:document-units="mm"
     showgrid="false"
     inkscape:zoom="1.7587595"
     inkscape:cx="112.57935"
     inkscape:cy="123.38242"
     inkscape:window-width="1920"
     inkscape:window-height="1001"
     inkscape:window-x="-9"
     inkscape:window-y="-9"
     inkscape:window-maximized="1"
     inkscape:current-layer="layer1"
     width="80mm"
     borderlayer="true" />
  <defs
     id="defs1086">
    <clipPath
       clipPathUnits="userSpaceOnUse"
       id="clipPath828">
      <path
         style="fill:#000000;stroke-width:0.999998"
         d="m 73.067254,185.20137 c -0.351364,-0.62653 -1.806996,-1.25249 -1.463074,-1.87937 3.042777,-3.04905 6.085554,-6.09811 9.128331,-9.14716 -2.106107,-2.11591 -4.212212,-4.23181 -6.318316,-6.34772 1.279853,-1.29595 2.559706,-2.59191 3.839559,-3.88786 1.422739,1.41009 2.845472,2.82018 4.268205,4.23027 1.347238,-1.34725 2.694477,-2.69449 4.04172,-4.04173 2.703788,2.69611 5.407573,5.39223 8.111355,8.08835 -1.343464,1.35763 -2.686931,2.71526 -4.030401,4.07289 1.345557,1.35975 2.691117,2.7195 4.036682,4.07925 -1.295834,1.27974 -2.591668,2.55948 -3.887504,3.83921 -2.177661,-2.1686 -4.35532,-4.3372 -6.532978,-6.50581 -3.103872,3.06476 -6.101519,6.24386 -9.336447,9.17069 -0.68842,-0.46703 -1.254887,-1.10165 -1.857132,-1.67101 z m 40.133836,-3.26711 c -1.52506,-1.52845 -3.05011,-3.05689 -4.57517,-4.58534 -2.12681,2.11797 -4.25362,4.23594 -6.38043,6.3539 -1.27925,-1.29533 -2.558491,-2.59066 -3.83773,-3.886 1.280916,-1.29703 2.56184,-2.59406 3.84276,-3.89109 -9.782733,-9.81547 -19.565469,-19.63094 -29.348207,-29.44641 -0.906698,-3.70063 -2.020885,-7.3609 -2.687402,-11.1125 3.677729,1.02317 7.319041,2.173 10.976591,3.26579 9.725181,9.7273 19.450368,19.4546 29.175548,29.1819 1.42199,-1.40934 2.84397,-2.81868 4.26595,-4.22803 1.27985,1.29595 2.55971,2.59191 3.83956,3.88786 -2.1061,2.11591 -4.2122,4.23182 -6.31831,6.34772 3.11498,3.12141 6.22996,6.24281 9.34494,9.36422 -1.17541,1.11975 -2.26603,2.34162 -3.55358,3.33332 -1.6555,-1.44794 -3.17711,-3.0435 -4.74452,-4.58534 z m -10.50192,-25.67111 c -1.68728,-1.91177 -5.546535,-4.22666 -1.89513,-6.27502 3.59455,-3.73818 7.31697,-7.3501 10.98517,-11.01539 3.65671,-1.05668 7.28518,-2.22116 10.97656,-3.15027 -0.84902,3.7658 -1.92464,7.47719 -2.89671,11.21293 -4.39173,4.34896 -8.67307,8.81595 -13.19757,13.02587 -1.40194,-1.1783 -2.66347,-2.51911 -3.97232,-3.79812 z"
         id="path830" />
    </clipPath>
    <clipPath
       clipPathUnits="userSpaceOnUse"
       id="clipPath832">
      <path
         style="fill:#000000;stroke-width:0.999998"
         d="m 73.067254,185.20137 c -0.351364,-0.62653 -1.806996,-1.25249 -1.463074,-1.87937 3.042777,-3.04905 6.085554,-6.09811 9.128331,-9.14716 -2.106107,-2.11591 -4.212212,-4.23181 -6.318316,-6.34772 1.279853,-1.29595 2.559706,-2.59191 3.839559,-3.88786 1.422739,1.41009 2.845472,2.82018 4.268205,4.23027 1.347238,-1.34725 2.694477,-2.69449 4.04172,-4.04173 2.703788,2.69611 5.407573,5.39223 8.111355,8.08835 -1.343464,1.35763 -2.686931,2.71526 -4.030401,4.07289 1.345557,1.35975 2.691117,2.7195 4.036682,4.07925 -1.295834,1.27974 -2.591668,2.55948 -3.887504,3.83921 -2.177661,-2.1686 -4.35532,-4.3372 -6.532978,-6.50581 -3.103872,3.06476 -6.101519,6.24386 -9.336447,9.17069 -0.68842,-0.46703 -1.254887,-1.10165 -1.857132,-1.67101 z m 40.133836,-3.26711 c -1.52506,-1.52845 -3.05011,-3.05689 -4.57517,-4.58534 -2.12681,2.11797 -4.25362,4.23594 -6.38043,6.3539 -1.27925,-1.29533 -2.558491,-2.59066 -3.83773,-3.886 1.280916,-1.29703 2.56184,-2.59406 3.84276,-3.89109 -9.782733,-9.81547 -19.565469,-19.63094 -29.348207,-29.44641 -0.906698,-3.70063 -2.020885,-7.3609 -2.687402,-11.1125 3.677729,1.02317 7.319041,2.173 10.976591,3.26579 9.725181,9.7273 19.450368,19.4546 29.175548,29.1819 1.42199,-1.40934 2.84397,-2.81868 4.26595,-4.22803 1.27985,1.29595 2.55971,2.59191 3.83956,3.88786 -2.1061,2.11591 -4.2122,4.23182 -6.31831,6.34772 3.11498,3.12141 6.22996,6.24281 9.34494,9.36422 -1.17541,1.11975 -2.26603,2.34162 -3.55358,3.33332 -1.6555,-1.44794 -3.17711,-3.0435 -4.74452,-4.58534 z m -10.50192,-25.67111 c -1.68728,-1.91177 -5.546535,-4.22666 -1.89513,-6.27502 3.59455,-3.73818 7.31697,-7.3501 10.98517,-11.01539 3.65671,-1.05668 7.28518,-2.22116 10.97656,-3.15027 -0.84902,3.7658 -1.92464,7.47719 -2.89671,11.21293 -4.39173,4.34896 -8.67307,8.81595 -13.19757,13.02587 -1.40194,-1.1783 -2.66347,-2.51911 -3.97232,-3.79812 z"
         id="path834" />
    </clipPath>
    <clipPath
       clipPathUnits="userSpaceOnUse"
       id="clipPath1737">
      <path
         style="fill:#000000;stroke-width:0.999998"
         d="M 27.563011,64.629681 C 24.213039,64.191602 20.938368,63.078106 19.279948,61.813167 17.7347,60.634549 17.386052,59.772404 17.38494,57.127159 l -9.79e-4,-2.354234 0.595313,0.862835 c 1.41954,2.057456 5.691045,3.687956 11.130777,4.248791 7.340111,0.756769 15.845234,-1.405774 17.496975,-4.448842 0.366848,-0.675854 0.389686,-0.579191 0.399674,1.69145 0.01249,2.839582 -0.398965,3.68196 -2.458386,5.033089 -3.344328,2.194118 -10.800787,3.278185 -16.985292,2.469433 z m 0.933439,-7.31556 c -4.830479,-0.512278 -9.372339,-2.390193 -10.582905,-4.3757 -0.424837,-0.696794 -0.52694,-1.329227 -0.524147,-3.246615 l 0.0035,-2.38125 0.543736,0.848908 c 1.039671,1.623189 4.242119,3.147679 8.209611,3.908091 3.211734,0.615564 9.427643,0.563835 12.619145,-0.105016 3.688834,-0.77308 6.695133,-2.296744 7.78138,-3.943794 0.464063,-0.703649 0.467069,-0.692745 0.468802,1.70008 0.0016,2.07082 -0.08291,2.53424 -0.602438,3.307292 -0.72903,1.084797 -2.866326,2.410431 -5.059608,3.138172 -3.172365,1.0526 -8.923761,1.566961 -12.857044,1.149832 z m 21.166667,-2.172258 v -2.355146 l 3.108854,-0.169715 c 6.904845,-0.376941 11.960262,-2.08389 13.618517,-4.598257 0.464238,-0.703911 0.467064,-0.693806 0.467813,1.673061 7.93e-4,2.841998 -0.400146,3.69702 -2.298891,4.901168 -2.735826,1.735011 -7.608223,2.880545 -12.316603,2.895722 l -2.57969,0.0083 z M 27.834992,49.805619 c -7.539688,-1.0356 -11.742726,-4.124539 -10.054444,-7.38932 1.619313,-3.131402 9.854993,-5.26864 17.393298,-4.513723 13.691129,1.371089 16.190666,8.676968 3.905938,11.416641 -2.671469,0.595776 -8.585904,0.851609 -11.244792,0.486402 z m 21.828125,-2.15351 v -2.518611 l 3.902604,-0.143134 c 5.926566,-0.217363 10.144213,-1.525484 12.236313,-3.795146 l 1.059,-1.14888 v 2.256185 c 0,2.560809 -0.326237,3.433886 -1.664531,4.454654 -2.408526,1.837071 -6.594837,2.963781 -12.027657,3.237146 l -3.505729,0.176395 z m -0.654164,-6.109642 c -0.648943,-1.367549 -2.803522,-3.272504 -4.710705,-4.164933 -1.701101,-0.795999 -5.363003,-1.840936 -6.451412,-1.840936 -0.574548,0 -0.619135,-0.105458 -0.619135,-1.464416 v -1.464416 l 0.830037,0.945361 c 2.24582,2.557849 7.417512,4.097555 13.769046,4.099293 7.064497,0.0019 12.580282,-1.706496 14.431894,-4.470056 l 0.602356,-0.899022 -0.0011,2.354231 c -0.0011,2.81224 -0.407829,3.673768 -2.300635,4.874151 -2.690616,1.706338 -6.376955,2.603982 -11.624537,2.830634 l -3.47512,0.150096 -0.450799,-0.949987 z M 48.869367,35.01495 C 43.355649,34.452078 39.069111,32.765058 37.756613,30.641393 37.334695,29.958715 37.2277,29.323437 37.2277,27.500958 v -2.284636 l 0.958702,1.061167 c 1.183363,1.309843 3.524589,2.452554 6.612393,3.227397 2.009153,0.504169 3.062118,0.589897 7.245572,0.589897 4.183454,0 5.236419,-0.08573 7.245572,-0.589897 3.087804,-0.774843 5.429031,-1.917554 6.612396,-3.227397 l 0.958699,-1.061167 v 2.284636 c 0,2.670101 -0.407395,3.565798 -2.144808,4.715563 -3.220543,2.131256 -10.239909,3.370821 -15.846859,2.798429 z M 47.149575,27.409386 C 45.310832,27.153579 42.074661,26.192871 40.679711,25.488704 38.698408,24.488544 37.2277,22.867719 37.2277,21.684337 c 0,-6.105573 18.650509,-8.543132 27.013059,-3.530516 3.848936,2.3071 3.345529,5.367967 -1.231905,7.490343 -2.917523,1.352742 -6.463448,1.96248 -11.138339,1.915291 -2.159955,-0.0218 -4.284377,-0.08933 -4.72094,-0.150069 z"
         id="path1739" />
    </clipPath>
    <clipPath
       clipPathUnits="userSpaceOnUse"
       id="clipPath1294">
      <path
         style="fill:#000000;stroke-width:0.999998"
         d="M 13.219848,74.55253 C 12.58352,74.05574 12.52258,73.721285 12.52258,70.725752 c 0,-2.995533 0.06094,-3.32999 0.697268,-3.826777 1.059803,-0.827402 52.448452,-0.827402 53.508257,0 0.636328,0.496787 0.697269,0.831244 0.697269,3.826777 0,2.995533 -0.06094,3.329988 -0.697269,3.826778 -0.617493,0.482086 -3.678397,0.544364 -26.75413,0.544364 -23.07573,0 -26.136633,-0.06228 -26.754127,-0.544364 z M 11.990565,48.805161 7.6139752,35.801702 5.8246801,35.403465 C 4.8405682,35.184435 3.6508521,34.687735 3.1808661,34.299692 -0.78457888,31.025618 0.19105113,24.30815 4.8513352,22.798078 6.143839,22.379268 6.797666,22.338674 7.7200331,22.619973 c 3.1957449,0.97462 4.6090519,3.18908 4.4369209,6.952051 l -0.104969,2.294755 4.650038,3.118057 c 2.830168,1.89775 5.101664,3.183921 5.80401,3.286352 2.237216,0.326287 2.839633,-0.490416 8.56203,-11.607617 l 5.21195,-10.125525 -0.950793,-1.318749 c -1.308457,-1.814831 -1.521923,-4.458832 -0.542126,-6.7148198 0.810093,-1.8652506 1.881272,-2.808388 3.859445,-3.3981139 2.558386,-0.7626969 5.33264,0.6772905 6.504879,3.37638 1.068864,2.4610637 0.705406,5.2761407 -0.947872,7.3414597 -0.545203,0.681086 -0.423188,0.964017 4.66422,10.815232 3.23872,6.271435 5.560698,10.39122 6.109835,10.840432 1.748486,1.430319 2.991007,1.059799 8.210069,-2.448237 l 4.703612,-3.161567 -0.08484,-2.427867 c -0.107042,-3.063055 0.685144,-4.80624 2.765722,-6.085908 5.646692,-3.47302 11.460919,4.285773 7.321089,9.769622 -1.042035,1.380337 -1.766882,1.810205 -3.856646,2.28718 l -1.702623,0.388612 -4.376589,13.003459 -4.376589,13.003461 H 39.973975 16.367154 Z"
         id="path1296" />
    </clipPath>
  </defs>
  <g
     inkscape:label="Ebene 1"
     inkscape:groupmode="layer"
     id="layer1" />
</svg>
