<?xml version="1.0" encoding="UTF-8" standalone="no"?>
<!-- Created with Inkscape (http://www.inkscape.org/) -->

<svg
   width="80mm"
   height="80mm"
   viewBox="0 0 80 80"
   version="1.1"
   id="svg5"
   inkscape:version="1.2-dev (42c0364, 2021-07-08)"
   sodipodi:docname="peasant.svg"
   inkscape:export-filename="C:\NewProjects\pocket-merchant\res\img\icons\inline\peasant.png"
   inkscape:export-xdpi="25.4"
   inkscape:export-ydpi="25.4"
   xmlns:inkscape="http://www.inkscape.org/namespaces/inkscape"
   xmlns:sodipodi="http://sodipodi.sourceforge.net/DTD/sodipodi-0.dtd"
   xmlns:xlink="http://www.w3.org/1999/xlink"
   xmlns="http://www.w3.org/2000/svg"
   xmlns:svg="http://www.w3.org/2000/svg">
  <sodipodi:namedview
     id="namedview7"
     pagecolor="#ffffff"
     bordercolor="#666666"
     borderopacity="1.0"
     inkscape:pageshadow="2"
     inkscape:pageopacity="0.0"
     inkscape:pagecheckerboard="0"
     inkscape:document-units="mm"
     showgrid="false"
     inkscape:zoom="1.2436308"
     inkscape:cx="-18.494235"
     inkscape:cy="199.4161"
     inkscape:window-width="1920"
     inkscape:window-height="1001"
     inkscape:window-x="-9"
     inkscape:window-y="-9"
     inkscape:window-maximized="1"
     inkscape:current-layer="layer1" />
  <defs
     id="defs2">
    <linearGradient
       inkscape:collect="always"
       id="linearGradient2239">
      <stop
         style="stop-color:#74ad21;stop-opacity:1;"
         offset="0"
         id="stop2235" />
      <stop
         style="stop-color:#1d4e16;stop-opacity:1;"
         offset="1"
         id="stop2237" />
    </linearGradient>
    <linearGradient
       inkscape:collect="always"
       xlink:href="#linearGradient2239"
       id="linearGradient2241"
       x1="39.571632"
       y1="-2.0211313"
       x2="40.209888"
       y2="83.717407"
       gradientUnits="userSpaceOnUse" />
    <filter
       id="mask-powermask-path-effect2465_inverse"
       inkscape:label="filtermask-powermask-path-effect2465"
       style="color-interpolation-filters:sRGB"
       height="100"
       width="100"
       x="-50"
       y="-50">
      <feColorMatrix
         id="mask-powermask-path-effect2465_primitive1"
         values="1"
         type="saturate"
         result="fbSourceGraphic" />
      <feColorMatrix
         id="mask-powermask-path-effect2465_primitive2"
         values="-1 0 0 0 1 0 -1 0 0 1 0 0 -1 0 1 0 0 0 1 0 "
         in="fbSourceGraphic" />
    </filter>
    <clipPath
       clipPathUnits="userSpaceOnUse"
       id="clipPath859">
      <path
         style="fill:#000000;stroke-width:0.999998"
         d="m 65.521628,76.161728 2.65e-4,-11.882842 -4.567222,0.166378 C 55.680763,64.63738 53.306832,64.088904 50.785678,62.095819 L 49.01742,60.697928 48.511709,66.073412 C 47.280632,77.271163 38.173538,69.870902 13.65225,79.603793 h -2.085731 c -3.6121658,0 -5.7928529,-2.678504 -5.9504216,-7.308802 -0.035308,-1.037379 -0.098282,-8.99454 -0.1399526,-17.682583 L 5.400375,38.815965 6.5671263,36.458287 c 2.4384852,-4.927489 7.2600457,-8.030747 13.3668767,-8.6032 2.623639,-0.245941 2.732529,-0.30798 2.4583,-1.400591 -0.289395,-1.153446 -3.179128,-4.378044 -3.923297,-4.378044 -1.262046,0 -5.23795,-1.533468 -6.129531,-2.364101 -2.325843,-2.166853 -0.834509,-4.576592 3.666824,-5.924953 l 2.724566,-0.816136 0.199512,-4.1729928 C 19.158182,4.033543 19.878,2.6047632 22.776383,1.1642623 c 1.686234,-0.83806087 1.884091,-0.84013721 5.094209,-0.053457 3.180405,0.7793996 3.514659,0.7785401 7.002253,-0.018006 3.55041,-0.81089346 3.717756,-0.80925852 5.471787,0.053457 2.55192,1.2551542 3.410085,3.038989 3.780539,7.8584178 l 0.314037,4.0855259 2.450618,0.712413 c 4.497647,1.307502 6.187033,3.713676 3.998177,5.694564 -0.527299,0.477199 -2.309995,1.322379 -3.961548,1.878177 -3.532521,1.188799 -5.56138,2.751754 -6.291757,4.846916 -0.521719,1.496602 -0.511342,1.512665 0.980662,1.517716 3.428836,0.01162 8.646676,2.281044 11.005725,4.786815 2.326166,2.47084 3.255666,4.824611 4.952174,12.540411 l 1.580356,7.18752 2.358637,0.0064 c 1.297249,0.0038 2.836063,0.134387 3.419588,0.290769 1.045504,0.280183 1.060956,0.219366 1.060956,-4.174953 0,-2.452597 -0.13942,-7.994314 -0.309817,-12.31492 -0.306443,-7.770006 -0.321527,-7.855622 -1.383911,-7.855622 -1.574509,0 -4.140435,-1.469842 -5.193477,-2.724085 L 58.56106,24.236111 58.448231,14.757363 V 4.5640302 l 1.060955,0.1506794 c 1.041017,0.1478479 1.069814,0.3264871 1.532491,9.5059424 0.456716,9.061268 0.507428,9.3843 1.613725,10.27938 0.645232,0.522039 1.671048,0.862612 2.357679,0.782755 1.155258,-0.134361 1.229958,-0.31661 1.507508,-3.677882 0.16061,-1.945085 0.319754,-6.322066 0.353653,-9.726626 0.04851,-4.8717364 0.21227,-6.3151337 0.768932,-6.7771216 0.567121,-0.4706673 0.860967,-0.4594796 1.482622,0.056453 0.679034,0.5635498 0.748429,1.6101171 0.55881,8.4274946 -0.267001,9.599595 -0.05195,11.503805 1.321295,11.699676 0.556969,0.07945 1.608093,-0.375013 2.357678,-1.019344 l 1.35263,-1.162697 0.128897,-8.1756 c 0.07089,-4.496582 0.234079,-8.6530329 0.362635,-9.2365572 0.28675,-1.3015846 1.424924,-1.3828458 2.085324,-0.1488831 0.649748,1.2140708 0.532122,14.8448843 -0.01339,18.2723083 -0.732443,1.938579 -2.717972,3.829389 -4.397975,4.188172 -2.701166,0.57686 -2.645077,0.296997 -2.645077,13.197419 0,11.431193 0.0389,11.946991 0.922361,12.227388 1.603801,0.509029 3.321458,2.992972 3.321458,4.803235 0,2.112704 -1.25608,4.249066 -2.935261,4.992341 l -1.308558,0.579226 v 11.673282 c -0.0092,1.311492 -4.651724,2.610826 -4.714994,0.686644 z M 34.305449,28.958521 c 1.964555,-1.022159 3.258352,-2.676129 3.856929,-4.930644 0.34471,-1.29834 0.864574,-2.139927 1.409973,-2.282552 1.281596,-0.335146 1.549146,-2.544571 0.434385,-3.58715 -0.501806,-0.469315 -0.802794,-1.030605 -0.668862,-1.247314 0.133935,-0.216709 -0.117877,-0.532696 -0.559583,-0.702195 -0.526701,-0.202113 -1.07216,0.04852 -1.58487,0.728236 -0.756859,1.00339 -0.798843,1.007879 -1.317606,0.140885 -0.509805,-0.852023 -0.588431,-0.832203 -1.618428,0.408002 l -1.082593,1.303531 -1.361802,-1.421416 c -1.204383,-1.257106 -1.674183,-1.421414 -4.064228,-1.421414 -3.078864,0 -4.194165,0.311536 -4.194165,1.171551 0,0.329515 -0.318287,0.863272 -0.707304,1.186127 -1.028641,0.853695 -0.867801,2.165315 0.416873,3.399551 0.618298,0.59402 1.388621,1.928802 1.711827,2.96618 0.74179,2.380879 1.177583,2.918099 3.260344,4.019179 2.021599,1.068744 4.335441,1.171469 6.06911,0.269443 z"
         id="path861"
         sodipodi:nodetypes="scsscccssscsssssscsssssscsssssssccssssccccssssssssssscssscssssscccssssssssscsssssssss" />
    </clipPath>
  </defs>
  <g
     inkscape:label="Layer 1"
     inkscape:groupmode="layer"
     id="layer1">
    <path
       style="fill:url(#linearGradient2241);fill-opacity:1;stroke-width:1;stroke-linecap:round;stroke-linejoin:round;paint-order:markers fill stroke"
       id="rect2210"
       width="86.802292"
       height="85.738541"
       x="-3.6167622"
       y="-2.5530086"
       sodipodi:type="rect"
       d="M -3.6167622,-2.5530086 H 83.18553 V 83.185532 H -3.6167622 Z"
       clip-path="url(#clipPath859)" />
  </g>
</svg>
