# Blender 3.3.1
# www.blender.org
mtllib tile_G.mtl
o Cylinder
v 0.000000 -0.218438 -3.000000
v 0.000000 0.218438 -3.000000
v 2.598076 -0.218438 -1.500000
v 2.598076 0.218438 -1.500000
v 2.598076 -0.218438 1.500000
v 2.598076 0.218438 1.500000
v 0.000000 -0.218438 3.000000
v 0.000000 0.218438 3.000000
v -2.598076 -0.218438 1.500000
v -2.598076 0.218438 1.500000
v -2.598076 -0.218438 -1.500000
v -2.598076 0.218438 -1.500000
vn 0.5000 -0.0000 -0.8660
vn 1.0000 -0.0000 -0.0000
vn 0.5000 -0.0000 0.8660
vn -0.5000 -0.0000 0.8660
vn -0.0000 1.0000 -0.0000
vn -1.0000 -0.0000 -0.0000
vn -0.5000 -0.0000 -0.8660
vn -0.0000 -1.0000 -0.0000
vt 1.000000 0.500000
vt -0.000000 0.500000
vt 0.750000 0.490000
vt 1.000000 1.000000
vt 0.250000 0.490000
vt -0.000000 1.000000
vt 0.833333 0.500000
vt 0.957846 0.370000
vt 0.833333 1.000000
vt 0.457846 0.370000
vt 0.666667 0.500000
vt 0.957846 0.130000
vt 0.666667 1.000000
vt 0.457846 0.130000
vt 0.500000 0.500000
vt 0.750000 0.010000
vt 0.500000 1.000000
vt 0.250000 0.010000
vt 0.333333 0.500000
vt 0.542154 0.130000
vt 0.042154 0.130000
vt 0.333333 1.000000
vt 0.166667 0.500000
vt 0.542154 0.370000
vt 0.042154 0.370000
vt 0.166667 1.000000
s 0
usemtl mat_hex_grass
f 1/1/1 2/4/1 4/9/1 3/7/1
f 3/7/2 4/9/2 6/13/2 5/11/2
f 5/11/3 6/13/3 8/17/3 7/15/3
f 7/15/4 8/17/4 10/22/4 9/19/4
f 4/10/5 2/5/5 12/25/5 10/21/5 8/18/5 6/14/5
f 9/19/6 10/22/6 12/26/6 11/23/6
f 11/23/7 12/26/7 2/6/7 1/2/7
f 1/3/8 3/8/8 5/12/8 7/16/8 9/20/8 11/24/8
